S,T,I,J,X
0,0,0,0,0.1
0,0,0,1,0
0,0,0,2,0
0,0,0,3,0
0,0,0,4,0
0,0,0,5,0
0,0,0,6,0
0,0,0,7,0
0,0,0,8,0
0,0,0,9,0
0,0,1,0,0
0,0,1,1,0
0,0,1,2,0
0,0,1,3,0
0,0,1,4,0
0,0,1,5,0
0,0,1,6,0
0,0,1,7,0
0,0,1,8,0
0,0,1,9,0
0,0,2,0,0
0,0,2,1,0
0,0,2,2,0
0,0,2,3,0
0,0,2,4,0
0,0,2,5,0
0,0,2,6,0
0,0,2,7,0
0,0,2,8,0
0,0,2,9,0
0,0,3,0,0
0,0,3,1,0
0,0,3,2,0
0,0,3,3,0
0,0,3,4,0
0,0,3,5,0
0,0,3,6,0
0,0,3,7,0
0,0,3,8,0
0,0,3,9,0
0,0,4,0,0
0,0,4,1,0
0,0,4,2,0
0,0,4,3,0
0,0,4,4,0
0,0,4,5,0
0,0,4,6,0
0,0,4,7,0
0,0,4,8,0
0,0,4,9,0
0,0,5,0,0
0,0,5,1,0
0,0,5,2,0
0,0,5,3,0
0,0,5,4,0
0,0,5,5,0
0,0,5,6,0
0,0,5,7,0
0,0,5,8,0
0,0,5,9,0
0,0,6,0,0
0,0,6,1,0
0,0,6,2,0
0,0,6,3,0
0,0,6,4,0
0,0,6,5,0
0,0,6,6,0
0,0,6,7,0
0,0,6,8,0
0,0,6,9,0
0,0,7,0,0
0,0,7,1,0
0,0,7,2,0
0,0,7,3,0
0,0,7,4,0
0,0,7,5,0
0,0,7,6,0
0,0,7,7,0
0,0,7,8,0
0,0,7,9,0
0,0,8,0,0
0,0,8,1,0
0,0,8,2,0
0,0,8,3,0
0,0,8,4,0
0,0,8,5,0
0,0,8,6,0
0,0,8,7,0
0,0,8,8,0
0,0,8,9,0
0,0,9,0,0
0,0,9,1,0
0,0,9,2,0
0,0,9,3,0
0,0,9,4,0
0,0,9,5,0
0,0,9,6,0
0,0,9,7,0
0,0,9,8,0
0,0,9,9,0
0,0,0,0,0.106273
0,0,0,1,0.0109091
0,0,0,2,0.01
0,0,0,3,0.01
0,0,0,4,0.01
0,0,0,5,0.01
0,0,0,6,0.01
0,0,0,7,0.01
0,0,0,8,0.01
0,0,0,9,0.01
0,0,1,0,0.0109091
0,0,1,1,0.0109091
0,0,1,2,0.01
0,0,1,3,0.01
0,0,1,4,0.01
0,0,1,5,0.01
0,0,1,6,0.01
0,0,1,7,0.01
0,0,1,8,0.01
0,0,1,9,0.01
0,0,2,0,0.01
0,0,2,1,0.01
0,0,2,2,0.01
0,0,2,3,0.01
0,0,2,4,0.01
0,0,2,5,0.01
0,0,2,6,0.01
0,0,2,7,0.01
0,0,2,8,0.01
0,0,2,9,0.01
0,0,3,0,0.01
0,0,3,1,0.01
0,0,3,2,0.01
0,0,3,3,0.01
0,0,3,4,0.01
0,0,3,5,0.01
0,0,3,6,0.01
0,0,3,7,0.01
0,0,3,8,0.01
0,0,3,9,0.01
0,0,4,0,0.01
0,0,4,1,0.01
0,0,4,2,0.01
0,0,4,3,0.01
0,0,4,4,0.01
0,0,4,5,0.01
0,0,4,6,0.01
0,0,4,7,0.01
0,0,4,8,0.01
0,0,4,9,0.01
0,0,5,0,0.01
0,0,5,1,0.01
0,0,5,2,0.01
0,0,5,3,0.01
0,0,5,4,0.01
0,0,5,5,0.01
0,0,5,6,0.01
0,0,5,7,0.01
0,0,5,8,0.01
0,0,5,9,0.01
0,0,6,0,0.01
0,0,6,1,0.01
0,0,6,2,0.01
0,0,6,3,0.01
0,0,6,4,0.01
0,0,6,5,0.01
0,0,6,6,0.01
0,0,6,7,0.01
0,0,6,8,0.01
0,0,6,9,0.01
0,0,7,0,0.01
0,0,7,1,0.01
0,0,7,2,0.01
0,0,7,3,0.01
0,0,7,4,0.01
0,0,7,5,0.01
0,0,7,6,0.01
0,0,7,7,0.01
0,0,7,8,0.01
0,0,7,9,0.01
0,0,8,0,0.01
0,0,8,1,0.01
0,0,8,2,0.01
0,0,8,3,0.01
0,0,8,4,0.01
0,0,8,5,0.01
0,0,8,6,0.01
0,0,8,7,0.01
0,0,8,8,0.01
0,0,8,9,0.01
0,0,9,0,0.01
0,0,9,1,0.01
0,0,9,2,0.01
0,0,9,3,0.01
0,0,9,4,0.01
0,0,9,5,0.01
0,0,9,6,0.01
0,0,9,7,0.01
0,0,9,8,0.01
0,0,9,9,0.01
22,0.22,0,0,0.254491
22,0.22,0,1,0.214956
22,0.22,0,2,0.207774
22,0.22,0,3,0.206546
22,0.22,0,4,0.206401
22,0.22,0,5,0.206387
22,0.22,0,6,0.206386
22,0.22,0,7,0.206386
22,0.22,0,8,0.206386
22,0.22,0,9,0.206386
22,0.22,1,0,0.214956
22,0.22,1,1,0.21342
22,0.22,1,2,0.207674
22,0.22,1,3,0.206565
22,0.22,1,4,0.206404
22,0.22,1,5,0.206387
22,0.22,1,6,0.206386
22,0.22,1,7,0.206386
22,0.22,1,8,0.206386
22,0.22,1,9,0.206386
22,0.22,2,0,0.207774
22,0.22,2,1,0.207674
22,0.22,2,2,0.207051
22,0.22,2,3,0.206498
22,0.22,2,4,0.206399
22,0.22,2,5,0.206387
22,0.22,2,6,0.206386
22,0.22,2,7,0.206386
22,0.22,2,8,0.206386
22,0.22,2,9,0.206386
22,0.22,3,0,0.206546
22,0.22,3,1,0.206565
22,0.22,3,2,0.206498
22,0.22,3,3,0.206429
22,0.22,3,4,0.206392
22,0.22,3,5,0.206386
22,0.22,3,6,0.206386
22,0.22,3,7,0.206386
22,0.22,3,8,0.206386
22,0.22,3,9,0.206386
22,0.22,4,0,0.206401
22,0.22,4,1,0.206404
22,0.22,4,2,0.206399
22,0.22,4,3,0.206392
22,0.22,4,4,0.206388
22,0.22,4,5,0.206386
22,0.22,4,6,0.206386
22,0.22,4,7,0.206386
22,0.22,4,8,0.206386
22,0.22,4,9,0.206386
22,0.22,5,0,0.206387
22,0.22,5,1,0.206387
22,0.22,5,2,0.206387
22,0.22,5,3,0.206386
22,0.22,5,4,0.206386
22,0.22,5,5,0.206386
22,0.22,5,6,0.206386
22,0.22,5,7,0.206386
22,0.22,5,8,0.206386
22,0.22,5,9,0.206386
22,0.22,6,0,0.206386
22,0.22,6,1,0.206386
22,0.22,6,2,0.206386
22,0.22,6,3,0.206386
22,0.22,6,4,0.206386
22,0.22,6,5,0.206386
22,0.22,6,6,0.206386
22,0.22,6,7,0.206386
22,0.22,6,8,0.206386
22,0.22,6,9,0.206386
22,0.22,7,0,0.206386
22,0.22,7,1,0.206386
22,0.22,7,2,0.206386
22,0.22,7,3,0.206386
22,0.22,7,4,0.206386
22,0.22,7,5,0.206386
22,0.22,7,6,0.206386
22,0.22,7,7,0.206386
22,0.22,7,8,0.206386
22,0.22,7,9,0.206386
22,0.22,8,0,0.206386
22,0.22,8,1,0.206386
22,0.22,8,2,0.206386
22,0.22,8,3,0.206386
22,0.22,8,4,0.206386
22,0.22,8,5,0.206386
22,0.22,8,6,0.206386
22,0.22,8,7,0.206386
22,0.22,8,8,0.206386
22,0.22,8,9,0.206386
22,0.22,9,0,0.206386
22,0.22,9,1,0.206386
22,0.22,9,2,0.206386
22,0.22,9,3,0.206386
22,0.22,9,4,0.206386
22,0.22,9,5,0.206386
22,0.22,9,6,0.206386
22,0.22,9,7,0.206386
22,0.22,9,8,0.206386
22,0.22,9,9,0.206386
44,0.44,0,0,0.392151
44,0.44,0,1,0.372156
44,0.44,0,2,0.365962
44,0.44,0,3,0.364234
44,0.44,0,4,0.363882
44,0.44,0,5,0.363824
44,0.44,0,6,0.363816
44,0.44,0,7,0.363815
44,0.44,0,8,0.363815
44,0.44,0,9,0.363815
44,0.44,1,0,0.372156
44,0.44,1,1,0.370258
44,0.44,1,2,0.365734
44,0.44,1,3,0.364255
44,0.44,1,4,0.363892
44,0.44,1,5,0.363826
44,0.44,1,6,0.363816
44,0.44,1,7,0.363815
44,0.44,1,8,0.363815
44,0.44,1,9,0.363815
44,0.44,2,0,0.365962
44,0.44,2,1,0.365734
44,0.44,2,2,0.364857
44,0.44,2,3,0.3641
44,0.44,2,4,0.363873
44,0.44,2,5,0.363824
44,0.44,2,6,0.363816
44,0.44,2,7,0.363815
44,0.44,2,8,0.363815
44,0.44,2,9,0.363815
44,0.44,3,0,0.364234
44,0.44,3,1,0.364255
44,0.44,3,2,0.3641
44,0.44,3,3,0.363937
44,0.44,3,4,0.363845
44,0.44,3,5,0.36382
44,0.44,3,6,0.363815
44,0.44,3,7,0.363815
44,0.44,3,8,0.363815
44,0.44,3,9,0.363815
44,0.44,4,0,0.363882
44,0.44,4,1,0.363892
44,0.44,4,2,0.363873
44,0.44,4,3,0.363845
44,0.44,4,4,0.363825
44,0.44,4,5,0.363817
44,0.44,4,6,0.363815
44,0.44,4,7,0.363815
44,0.44,4,8,0.363815
44,0.44,4,9,0.363815
44,0.44,5,0,0.363824
44,0.44,5,1,0.363826
44,0.44,5,2,0.363824
44,0.44,5,3,0.36382
44,0.44,5,4,0.363817
44,0.44,5,5,0.363815
44,0.44,5,6,0.363815
44,0.44,5,7,0.363815
44,0.44,5,8,0.363815
44,0.44,5,9,0.363815
44,0.44,6,0,0.363816
44,0.44,6,1,0.363816
44,0.44,6,2,0.363816
44,0.44,6,3,0.363815
44,0.44,6,4,0.363815
44,0.44,6,5,0.363815
44,0.44,6,6,0.363815
44,0.44,6,7,0.363815
44,0.44,6,8,0.363815
44,0.44,6,9,0.363815
44,0.44,7,0,0.363815
44,0.44,7,1,0.363815
44,0.44,7,2,0.363815
44,0.44,7,3,0.363815
44,0.44,7,4,0.363815
44,0.44,7,5,0.363815
44,0.44,7,6,0.363815
44,0.44,7,7,0.363815
44,0.44,7,8,0.363815
44,0.44,7,9,0.363815
44,0.44,8,0,0.363815
44,0.44,8,1,0.363815
44,0.44,8,2,0.363815
44,0.44,8,3,0.363815
44,0.44,8,4,0.363815
44,0.44,8,5,0.363815
44,0.44,8,6,0.363815
44,0.44,8,7,0.363815
44,0.44,8,8,0.363815
44,0.44,8,9,0.363815
44,0.44,9,0,0.363815
44,0.44,9,1,0.363815
44,0.44,9,2,0.363815
44,0.44,9,3,0.363815
44,0.44,9,4,0.363815
44,0.44,9,5,0.363815
44,0.44,9,6,0.363815
44,0.44,9,7,0.363815
44,0.44,9,8,0.363815
44,0.44,9,9,0.363815
66,0.66,0,0,0.508186
66,0.66,0,1,0.496906
66,0.66,0,2,0.492255
66,0.66,0,3,0.490584
66,0.66,0,4,0.490135
66,0.66,0,5,0.490036
66,0.66,0,6,0.490018
66,0.66,0,7,0.490015
66,0.66,0,8,0.490014
66,0.66,0,9,0.490014
66,0.66,1,0,0.496906
66,0.66,1,1,0.49524
66,0.66,1,2,0.491978
66,0.66,1,3,0.49059
66,0.66,1,4,0.490148
66,0.66,1,5,0.49004
66,0.66,1,6,0.490019
66,0.66,1,7,0.490015
66,0.66,1,8,0.490014
66,0.66,1,9,0.490014
66,0.66,2,0,0.492255
66,0.66,2,1,0.491978
66,0.66,2,2,0.49113
66,0.66,2,3,0.490397
66,0.66,2,4,0.490115
66,0.66,2,5,0.490036
66,0.66,2,6,0.490018
66,0.66,2,7,0.490015
66,0.66,2,8,0.490014
66,0.66,2,9,0.490014
66,0.66,3,0,0.490584
66,0.66,3,1,0.49059
66,0.66,3,2,0.490397
66,0.66,3,3,0.490192
66,0.66,3,4,0.490069
66,0.66,3,5,0.490027
66,0.66,3,6,0.490017
66,0.66,3,7,0.490015
66,0.66,3,8,0.490014
66,0.66,3,9,0.490014
66,0.66,4,0,0.490135
66,0.66,4,1,0.490148
66,0.66,4,2,0.490115
66,0.66,4,3,0.490069
66,0.66,4,4,0.490036
66,0.66,4,5,0.49002
66,0.66,4,6,0.490016
66,0.66,4,7,0.490014
66,0.66,4,8,0.490014
66,0.66,4,9,0.490014
66,0.66,5,0,0.490036
66,0.66,5,1,0.49004
66,0.66,5,2,0.490036
66,0.66,5,3,0.490027
66,0.66,5,4,0.49002
66,0.66,5,5,0.490016
66,0.66,5,6,0.490015
66,0.66,5,7,0.490014
66,0.66,5,8,0.490014
66,0.66,5,9,0.490014
66,0.66,6,0,0.490018
66,0.66,6,1,0.490019
66,0.66,6,2,0.490018
66,0.66,6,3,0.490017
66,0.66,6,4,0.490016
66,0.66,6,5,0.490015
66,0.66,6,6,0.490014
66,0.66,6,7,0.490014
66,0.66,6,8,0.490014
66,0.66,6,9,0.490014
66,0.66,7,0,0.490015
66,0.66,7,1,0.490015
66,0.66,7,2,0.490015
66,0.66,7,3,0.490015
66,0.66,7,4,0.490014
66,0.66,7,5,0.490014
66,0.66,7,6,0.490014
66,0.66,7,7,0.490014
66,0.66,7,8,0.490014
66,0.66,7,9,0.490014
66,0.66,8,0,0.490014
66,0.66,8,1,0.490014
66,0.66,8,2,0.490014
66,0.66,8,3,0.490014
66,0.66,8,4,0.490014
66,0.66,8,5,0.490014
66,0.66,8,6,0.490014
66,0.66,8,7,0.490014
66,0.66,8,8,0.490014
66,0.66,8,9,0.490014
66,0.66,9,0,0.490014
66,0.66,9,1,0.490014
66,0.66,9,2,0.490014
66,0.66,9,3,0.490014
66,0.66,9,4,0.490014
66,0.66,9,5,0.490014
66,0.66,9,6,0.490014
66,0.66,9,7,0.490014
66,0.66,9,8,0.490014
66,0.66,9,9,0.490014
88,0.88,0,0,0.603427
88,0.88,0,1,0.596622
88,0.88,0,2,0.593233
88,0.88,0,3,0.591798
88,0.88,0,4,0.591336
88,0.88,0,5,0.591214
88,0.88,0,6,0.591186
88,0.88,0,7,0.591181
88,0.88,0,8,0.59118
88,0.88,0,9,0.59118
88,0.88,1,0,0.596622
88,0.88,1,1,0.595296
88,0.88,1,2,0.592961
88,0.88,1,3,0.591788
88,0.88,1,4,0.591348
88,0.88,1,5,0.591219
88,0.88,1,6,0.591188
88,0.88,1,7,0.591181
88,0.88,1,8,0.59118
88,0.88,1,9,0.59118
88,0.88,2,0,0.593233
88,0.88,2,1,0.592961
88,0.88,2,2,0.592232
88,0.88,2,3,0.591594
88,0.88,2,4,0.591308
88,0.88,2,5,0.591212
88,0.88,2,6,0.591187
88,0.88,2,7,0.591181
88,0.88,2,8,0.59118
88,0.88,2,9,0.59118
88,0.88,3,0,0.591798
88,0.88,3,1,0.591788
88,0.88,3,2,0.591594
88,0.88,3,3,0.591384
88,0.88,3,4,0.591252
88,0.88,3,5,0.5912
88,0.88,3,6,0.591185
88,0.88,3,7,0.591181
88,0.88,3,8,0.59118
88,0.88,3,9,0.59118
88,0.88,4,0,0.591336
88,0.88,4,1,0.591348
88,0.88,4,2,0.591308
88,0.88,4,3,0.591252
88,0.88,4,4,0.591211
88,0.88,4,5,0.59119
88,0.88,4,6,0.591182
88,0.88,4,7,0.59118
88,0.88,4,8,0.59118
88,0.88,4,9,0.59118
88,0.88,5,0,0.591214
88,0.88,5,1,0.591219
88,0.88,5,2,0.591212
88,0.88,5,3,0.5912
88,0.88,5,4,0.59119
88,0.88,5,5,0.591184
88,0.88,5,6,0.591181
88,0.88,5,7,0.59118
88,0.88,5,8,0.59118
88,0.88,5,9,0.59118
88,0.88,6,0,0.591186
88,0.88,6,1,0.591188
88,0.88,6,2,0.591187
88,0.88,6,3,0.591185
88,0.88,6,4,0.591182
88,0.88,6,5,0.591181
88,0.88,6,6,0.59118
88,0.88,6,7,0.59118
88,0.88,6,8,0.59118
88,0.88,6,9,0.59118
88,0.88,7,0,0.591181
88,0.88,7,1,0.591181
88,0.88,7,2,0.591181
88,0.88,7,3,0.591181
88,0.88,7,4,0.59118
88,0.88,7,5,0.59118
88,0.88,7,6,0.59118
88,0.88,7,7,0.59118
88,0.88,7,8,0.59118
88,0.88,7,9,0.59118
88,0.88,8,0,0.59118
88,0.88,8,1,0.59118
88,0.88,8,2,0.59118
88,0.88,8,3,0.59118
88,0.88,8,4,0.59118
88,0.88,8,5,0.59118
88,0.88,8,6,0.59118
88,0.88,8,7,0.59118
88,0.88,8,8,0.59118
88,0.88,8,9,0.59118
88,0.88,9,0,0.59118
88,0.88,9,1,0.59118
88,0.88,9,2,0.59118
88,0.88,9,3,0.59118
88,0.88,9,4,0.59118
88,0.88,9,5,0.59118
88,0.88,9,6,0.59118
88,0.88,9,7,0.59118
88,0.88,9,8,0.59118
88,0.88,9,9,0.59118
110,1.1,0,0,0.680799
110,1.1,0,1,0.676506
110,1.1,0,2,0.674053
110,1.1,0,3,0.672881
110,1.1,0,4,0.67245
110,1.1,0,5,0.67232
110,1.1,0,6,0.672286
110,1.1,0,7,0.672279
110,1.1,0,8,0.672278
110,1.1,0,9,0.672277
110,1.1,1,0,0.676506
110,1.1,1,1,0.675489
110,1.1,1,2,0.673808
110,1.1,1,3,0.672861
110,1.1,1,4,0.672459
110,1.1,1,5,0.672325
110,1.1,1,6,0.672288
110,1.1,1,7,0.672279
110,1.1,1,8,0.672278
110,1.1,1,9,0.672277
110,1.1,2,0,0.674053
110,1.1,2,1,0.673808
110,1.1,2,2,0.673212
110,1.1,2,3,0.672681
110,1.1,2,4,0.672417
110,1.1,2,5,0.672317
110,1.1,2,6,0.672287
110,1.1,2,7,0.672279
110,1.1,2,8,0.672278
110,1.1,2,9,0.672277
110,1.1,3,0,0.672881
110,1.1,3,1,0.672861
110,1.1,3,2,0.672681
110,1.1,3,3,0.672487
110,1.1,3,4,0.672359
110,1.1,3,5,0.672303
110,1.1,3,6,0.672284
110,1.1,3,7,0.672279
110,1.1,3,8,0.672278
110,1.1,3,9,0.672277
110,1.1,4,0,0.67245
110,1.1,4,1,0.672459
110,1.1,4,2,0.672417
110,1.1,4,3,0.672359
110,1.1,4,4,0.672314
110,1.1,4,5,0.67229
110,1.1,4,6,0.672281
110,1.1,4,7,0.672278
110,1.1,4,8,0.672277
110,1.1,4,9,0.672277
110,1.1,5,0,0.67232
110,1.1,5,1,0.672325
110,1.1,5,2,0.672317
110,1.1,5,3,0.672303
110,1.1,5,4,0.67229
110,1.1,5,5,0.672283
110,1.1,5,6,0.672279
110,1.1,5,7,0.672278
110,1.1,5,8,0.672277
110,1.1,5,9,0.672277
110,1.1,6,0,0.672286
110,1.1,6,1,0.672288
110,1.1,6,2,0.672287
110,1.1,6,3,0.672284
110,1.1,6,4,0.672281
110,1.1,6,5,0.672279
110,1.1,6,6,0.672278
110,1.1,6,7,0.672277
110,1.1,6,8,0.672277
110,1.1,6,9,0.672277
110,1.1,7,0,0.672279
110,1.1,7,1,0.672279
110,1.1,7,2,0.672279
110,1.1,7,3,0.672279
110,1.1,7,4,0.672278
110,1.1,7,5,0.672278
110,1.1,7,6,0.672277
110,1.1,7,7,0.672277
110,1.1,7,8,0.672277
110,1.1,7,9,0.672277
110,1.1,8,0,0.672278
110,1.1,8,1,0.672278
110,1.1,8,2,0.672278
110,1.1,8,3,0.672278
110,1.1,8,4,0.672277
110,1.1,8,5,0.672277
110,1.1,8,6,0.672277
110,1.1,8,7,0.672277
110,1.1,8,8,0.672277
110,1.1,8,9,0.672277
110,1.1,9,0,0.672277
110,1.1,9,1,0.672277
110,1.1,9,2,0.672277
110,1.1,9,3,0.672277
110,1.1,9,4,0.672277
110,1.1,9,5,0.672277
110,1.1,9,6,0.672277
110,1.1,9,7,0.672277
110,1.1,9,8,0.672277
110,1.1,9,9,0.672277
132,1.32,0,0,0.743347
132,1.32,0,1,0.740552
132,1.32,0,2,0.738776
132,1.32,0,3,0.737843
132,1.32,0,4,0.737463
132,1.32,0,5,0.737336
132,1.32,0,6,0.737299
132,1.32,0,7,0.73729
132,1.32,0,8,0.737288
132,1.32,0,9,0.737288
132,1.32,1,0,0.740552
132,1.32,1,1,0.739785
132,1.32,1,2,0.738567
132,1.32,1,3,0.737817
132,1.32,1,4,0.737469
132,1.32,1,5,0.737341
132,1.32,1,6,0.737301
132,1.32,1,7,0.73729
132,1.32,1,8,0.737288
132,1.32,1,9,0.737288
132,1.32,2,0,0.738776
132,1.32,2,1,0.738567
132,1.32,2,2,0.738091
132,1.32,2,3,0.73766
132,1.32,2,4,0.737428
132,1.32,2,5,0.737332
132,1.32,2,6,0.737299
132,1.32,2,7,0.73729
132,1.32,2,8,0.737288
132,1.32,2,9,0.737288
132,1.32,3,0,0.737843
132,1.32,3,1,0.737817
132,1.32,3,2,0.73766
132,1.32,3,3,0.737489
132,1.32,3,4,0.737372
132,1.32,3,5,0.737316
132,1.32,3,6,0.737296
132,1.32,3,7,0.73729
132,1.32,3,8,0.737288
132,1.32,3,9,0.737288
132,1.32,4,0,0.737463
132,1.32,4,1,0.737469
132,1.32,4,2,0.737428
132,1.32,4,3,0.737372
132,1.32,4,4,0.737328
132,1.32,4,5,0.737303
132,1.32,4,6,0.737292
132,1.32,4,7,0.737289
132,1.32,4,8,0.737288
132,1.32,4,9,0.737287
132,1.32,5,0,0.737336
132,1.32,5,1,0.737341
132,1.32,5,2,0.737332
132,1.32,5,3,0.737316
132,1.32,5,4,0.737303
132,1.32,5,5,0.737294
132,1.32,5,6,0.73729
132,1.32,5,7,0.737288
132,1.32,5,8,0.737288
132,1.32,5,9,0.737287
132,1.32,6,0,0.737299
132,1.32,6,1,0.737301
132,1.32,6,2,0.737299
132,1.32,6,3,0.737296
132,1.32,6,4,0.737292
132,1.32,6,5,0.73729
132,1.32,6,6,0.737288
132,1.32,6,7,0.737288
132,1.32,6,8,0.737287
132,1.32,6,9,0.737287
132,1.32,7,0,0.73729
132,1.32,7,1,0.73729
132,1.32,7,2,0.73729
132,1.32,7,3,0.73729
132,1.32,7,4,0.737289
132,1.32,7,5,0.737288
132,1.32,7,6,0.737288
132,1.32,7,7,0.737288
132,1.32,7,8,0.737287
132,1.32,7,9,0.737287
132,1.32,8,0,0.737288
132,1.32,8,1,0.737288
132,1.32,8,2,0.737288
132,1.32,8,3,0.737288
132,1.32,8,4,0.737288
132,1.32,8,5,0.737288
132,1.32,8,6,0.737287
132,1.32,8,7,0.737287
132,1.32,8,8,0.737287
132,1.32,8,9,0.737287
132,1.32,9,0,0.737288
132,1.32,9,1,0.737288
132,1.32,9,2,0.737288
132,1.32,9,3,0.737288
132,1.32,9,4,0.737287
132,1.32,9,5,0.737287
132,1.32,9,6,0.737287
132,1.32,9,7,0.737287
132,1.32,9,8,0.737287
132,1.32,9,9,0.737287
154,1.54,0,0,0.793778
154,1.54,0,1,0.791916
154,1.54,0,2,0.790627
154,1.54,0,3,0.789894
154,1.54,0,4,0.78957
154,1.54,0,5,0.789452
154,1.54,0,6,0.789415
154,1.54,0,7,0.789405
154,1.54,0,8,0.789402
154,1.54,0,9,0.789402
154,1.54,1,0,0.791916
154,1.54,1,1,0.791341
154,1.54,1,2,0.790453
154,1.54,1,3,0.789867
154,1.54,1,4,0.789574
154,1.54,1,5,0.789456
154,1.54,1,6,0.789417
154,1.54,1,7,0.789405
154,1.54,1,8,0.789402
154,1.54,1,9,0.789402
154,1.54,2,0,0.790627
154,1.54,2,1,0.790453
154,1.54,2,2,0.790078
154,1.54,2,3,0.789734
154,1.54,2,4,0.789535
154,1.54,2,5,0.789447
154,1.54,2,6,0.789415
154,1.54,2,7,0.789405
154,1.54,2,8,0.789402
154,1.54,2,9,0.789402
154,1.54,3,0,0.789894
154,1.54,3,1,0.789867
154,1.54,3,2,0.789734
154,1.54,3,3,0.789587
154,1.54,3,4,0.789484
154,1.54,3,5,0.789432
154,1.54,3,6,0.789411
154,1.54,3,7,0.789404
154,1.54,3,8,0.789402
154,1.54,3,9,0.789402
154,1.54,4,0,0.78957
154,1.54,4,1,0.789574
154,1.54,4,2,0.789535
154,1.54,4,3,0.789484
154,1.54,4,4,0.789442
154,1.54,4,5,0.789418
154,1.54,4,6,0.789407
154,1.54,4,7,0.789403
154,1.54,4,8,0.789402
154,1.54,4,9,0.789402
154,1.54,5,0,0.789452
154,1.54,5,1,0.789456
154,1.54,5,2,0.789447
154,1.54,5,3,0.789432
154,1.54,5,4,0.789418
154,1.54,5,5,0.789409
154,1.54,5,6,0.789404
154,1.54,5,7,0.789402
154,1.54,5,8,0.789402
154,1.54,5,9,0.789402
154,1.54,6,0,0.789415
154,1.54,6,1,0.789417
154,1.54,6,2,0.789415
154,1.54,6,3,0.789411
154,1.54,6,4,0.789407
154,1.54,6,5,0.789404
154,1.54,6,6,0.789403
154,1.54,6,7,0.789402
154,1.54,6,8,0.789402
154,1.54,6,9,0.789402
154,1.54,7,0,0.789405
154,1.54,7,1,0.789405
154,1.54,7,2,0.789405
154,1.54,7,3,0.789404
154,1.54,7,4,0.789403
154,1.54,7,5,0.789402
154,1.54,7,6,0.789402
154,1.54,7,7,0.789402
154,1.54,7,8,0.789402
154,1.54,7,9,0.789402
154,1.54,8,0,0.789402
154,1.54,8,1,0.789402
154,1.54,8,2,0.789402
154,1.54,8,3,0.789402
154,1.54,8,4,0.789402
154,1.54,8,5,0.789402
154,1.54,8,6,0.789402
154,1.54,8,7,0.789402
154,1.54,8,8,0.789402
154,1.54,8,9,0.789402
154,1.54,9,0,0.789402
154,1.54,9,1,0.789402
154,1.54,9,2,0.789402
154,1.54,9,3,0.789402
154,1.54,9,4,0.789402
154,1.54,9,5,0.789402
154,1.54,9,6,0.789402
154,1.54,9,7,0.789402
154,1.54,9,8,0.789402
154,1.54,9,9,0.789402
176,1.76,0,0,0.834376
176,1.76,0,1,0.833113
176,1.76,0,2,0.832174
176,1.76,0,3,0.831604
176,1.76,0,4,0.831334
176,1.76,0,5,0.831228
176,1.76,0,6,0.831192
176,1.76,0,7,0.831181
176,1.76,0,8,0.831179
176,1.76,0,9,0.831178
176,1.76,1,0,0.833113
176,1.76,1,1,0.832684
176,1.76,1,2,0.832033
176,1.76,1,3,0.831578
176,1.76,1,4,0.831335
176,1.76,1,5,0.831231
176,1.76,1,6,0.831194
176,1.76,1,7,0.831182
176,1.76,1,8,0.831179
176,1.76,1,9,0.831178
176,1.76,2,0,0.832174
176,1.76,2,1,0.832033
176,1.76,2,2,0.83174
176,1.76,2,3,0.831467
176,1.76,2,4,0.831301
176,1.76,2,5,0.831223
176,1.76,2,6,0.831192
176,1.76,2,7,0.831182
176,1.76,2,8,0.831179
176,1.76,2,9,0.831178
176,1.76,3,0,0.831604
176,1.76,3,1,0.831578
176,1.76,3,2,0.831467
176,1.76,3,3,0.831344
176,1.76,3,4,0.831255
176,1.76,3,5,0.831208
176,1.76,3,6,0.831188
176,1.76,3,7,0.831181
176,1.76,3,8,0.831179
176,1.76,3,9,0.831178
176,1.76,4,0,0.831334
176,1.76,4,1,0.831335
176,1.76,4,2,0.831301
176,1.76,4,3,0.831255
176,1.76,4,4,0.831217
176,1.76,4,5,0.831195
176,1.76,4,6,0.831184
176,1.76,4,7,0.83118
176,1.76,4,8,0.831178
176,1.76,4,9,0.831178
176,1.76,5,0,0.831228
176,1.76,5,1,0.831231
176,1.76,5,2,0.831223
176,1.76,5,3,0.831208
176,1.76,5,4,0.831195
176,1.76,5,5,0.831186
176,1.76,5,6,0.831181
176,1.76,5,7,0.831179
176,1.76,5,8,0.831178
176,1.76,5,9,0.831178
176,1.76,6,0,0.831192
176,1.76,6,1,0.831194
176,1.76,6,2,0.831192
176,1.76,6,3,0.831188
176,1.76,6,4,0.831184
176,1.76,6,5,0.831181
176,1.76,6,6,0.831179
176,1.76,6,7,0.831178
176,1.76,6,8,0.831178
176,1.76,6,9,0.831178
176,1.76,7,0,0.831181
176,1.76,7,1,0.831182
176,1.76,7,2,0.831182
176,1.76,7,3,0.831181
176,1.76,7,4,0.83118
176,1.76,7,5,0.831179
176,1.76,7,6,0.831178
176,1.76,7,7,0.831178
176,1.76,7,8,0.831178
176,1.76,7,9,0.831178
176,1.76,8,0,0.831179
176,1.76,8,1,0.831179
176,1.76,8,2,0.831179
176,1.76,8,3,0.831179
176,1.76,8,4,0.831178
176,1.76,8,5,0.831178
176,1.76,8,6,0.831178
176,1.76,8,7,0.831178
176,1.76,8,8,0.831178
176,1.76,8,9,0.831178
176,1.76,9,0,0.831178
176,1.76,9,1,0.831178
176,1.76,9,2,0.831178
176,1.76,9,3,0.831178
176,1.76,9,4,0.831178
176,1.76,9,5,0.831178
176,1.76,9,6,0.831178
176,1.76,9,7,0.831178
176,1.76,9,8,0.831178
176,1.76,9,9,0.831178
198,1.98,0,0,0.867026
198,1.98,0,1,0.866157
198,1.98,0,2,0.86547
198,1.98,0,3,0.86503
198,1.98,0,4,0.864808
198,1.98,0,5,0.864715
198,1.98,0,6,0.864681
198,1.98,0,7,0.864671
198,1.98,0,8,0.864668
198,1.98,0,9,0.864667
198,1.98,1,0,0.866157
198,1.98,1,1,0.865837
198,1.98,1,2,0.865357
198,1.98,1,3,0.865005
198,1.98,1,4,0.864808
198,1.98,1,5,0.864718
198,1.98,1,6,0.864683
198,1.98,1,7,0.864672
198,1.98,1,8,0.864668
198,1.98,1,9,0.864667
198,1.98,2,0,0.86547
198,1.98,2,1,0.865357
198,1.98,2,2,0.86513
198,1.98,2,3,0.864915
198,1.98,2,4,0.864778
198,1.98,2,5,0.864709
198,1.98,2,6,0.864681
198,1.98,2,7,0.864671
198,1.98,2,8,0.864668
198,1.98,2,9,0.864667
198,1.98,3,0,0.86503
198,1.98,3,1,0.865005
198,1.98,3,2,0.864915
198,1.98,3,3,0.864813
198,1.98,3,4,0.864738
198,1.98,3,5,0.864696
198,1.98,3,6,0.864677
198,1.98,3,7,0.86467
198,1.98,3,8,0.864668
198,1.98,3,9,0.864667
198,1.98,4,0,0.864808
198,1.98,4,1,0.864808
198,1.98,4,2,0.864778
198,1.98,4,3,0.864738
198,1.98,4,4,0.864704
198,1.98,4,5,0.864684
198,1.98,4,6,0.864673
198,1.98,4,7,0.864669
198,1.98,4,8,0.864668
198,1.98,4,9,0.864667
198,1.98,5,0,0.864715
198,1.98,5,1,0.864718
198,1.98,5,2,0.864709
198,1.98,5,3,0.864696
198,1.98,5,4,0.864684
198,1.98,5,5,0.864675
198,1.98,5,6,0.86467
198,1.98,5,7,0.864668
198,1.98,5,8,0.864667
198,1.98,5,9,0.864667
198,1.98,6,0,0.864681
198,1.98,6,1,0.864683
198,1.98,6,2,0.864681
198,1.98,6,3,0.864677
198,1.98,6,4,0.864673
198,1.98,6,5,0.86467
198,1.98,6,6,0.864668
198,1.98,6,7,0.864668
198,1.98,6,8,0.864667
198,1.98,6,9,0.864667
198,1.98,7,0,0.864671
198,1.98,7,1,0.864672
198,1.98,7,2,0.864671
198,1.98,7,3,0.86467
198,1.98,7,4,0.864669
198,1.98,7,5,0.864668
198,1.98,7,6,0.864668
198,1.98,7,7,0.864667
198,1.98,7,8,0.864667
198,1.98,7,9,0.864667
198,1.98,8,0,0.864668
198,1.98,8,1,0.864668
198,1.98,8,2,0.864668
198,1.98,8,3,0.864668
198,1.98,8,4,0.864668
198,1.98,8,5,0.864667
198,1.98,8,6,0.864667
198,1.98,8,7,0.864667
198,1.98,8,8,0.864667
198,1.98,8,9,0.864667
198,1.98,9,0,0.864667
198,1.98,9,1,0.864667
198,1.98,9,2,0.864667
198,1.98,9,3,0.864667
198,1.98,9,4,0.864667
198,1.98,9,5,0.864667
198,1.98,9,6,0.864667
198,1.98,9,7,0.864667
198,1.98,9,8,0.864667
198,1.98,9,9,0.864667
