S,T,I,J,X
0,0,0,0,0
0,0,0,1,0
0,0,0,2,0
0,0,0,3,0
0,0,0,4,0
0,0,0,5,0
0,0,0,6,0
0,0,0,7,0
0,0,0,8,0
0,0,0,9,0
0,0,1,0,0
0,0,1,1,0
0,0,1,2,0
0,0,1,3,0
0,0,1,4,0
0,0,1,5,0
0,0,1,6,0
0,0,1,7,0
0,0,1,8,0
0,0,1,9,0
0,0,2,0,0
0,0,2,1,0
0,0,2,2,0
0,0,2,3,0
0,0,2,4,0
0,0,2,5,0
0,0,2,6,0
0,0,2,7,0
0,0,2,8,0
0,0,2,9,0
0,0,3,0,0
0,0,3,1,0
0,0,3,2,0
0,0,3,3,0
0,0,3,4,0
0,0,3,5,0
0,0,3,6,0
0,0,3,7,0
0,0,3,8,0
0,0,3,9,0
0,0,4,0,0
0,0,4,1,0
0,0,4,2,0
0,0,4,3,0
0,0,4,4,0
0,0,4,5,0
0,0,4,6,0
0,0,4,7,0
0,0,4,8,0
0,0,4,9,0
0,0,5,0,0
0,0,5,1,0
0,0,5,2,0
0,0,5,3,0
0,0,5,4,0
0,0,5,5,0.1
0,0,5,6,0
0,0,5,7,0
0,0,5,8,0
0,0,5,9,0
0,0,6,0,0
0,0,6,1,0
0,0,6,2,0
0,0,6,3,0
0,0,6,4,0
0,0,6,5,0
0,0,6,6,0
0,0,6,7,0
0,0,6,8,0
0,0,6,9,0
0,0,7,0,0
0,0,7,1,0
0,0,7,2,0
0,0,7,3,0
0,0,7,4,0
0,0,7,5,0
0,0,7,6,0
0,0,7,7,0
0,0,7,8,0
0,0,7,9,0
0,0,8,0,0
0,0,8,1,0
0,0,8,2,0
0,0,8,3,0
0,0,8,4,0
0,0,8,5,0
0,0,8,6,0
0,0,8,7,0
0,0,8,8,0
0,0,8,9,0
0,0,9,0,0
0,0,9,1,0
0,0,9,2,0
0,0,9,3,0
0,0,9,4,0
0,0,9,5,0
0,0,9,6,0
0,0,9,7,0
0,0,9,8,0
0,0,9,9,0
0,0,0,0,0.01
0,0,0,1,0.01
0,0,0,2,0.01
0,0,0,3,0.01
0,0,0,4,0.01
0,0,0,5,0.01
0,0,0,6,0.01
0,0,0,7,0.01
0,0,0,8,0.01
0,0,0,9,0.01
0,0,1,0,0.01
0,0,1,1,0.01
0,0,1,2,0.01
0,0,1,3,0.01
0,0,1,4,0.01
0,0,1,5,0.01
0,0,1,6,0.01
0,0,1,7,0.01
0,0,1,8,0.01
0,0,1,9,0.01
0,0,2,0,0.01
0,0,2,1,0.01
0,0,2,2,0.01
0,0,2,3,0.01
0,0,2,4,0.01
0,0,2,5,0.01
0,0,2,6,0.01
0,0,2,7,0.01
0,0,2,8,0.01
0,0,2,9,0.01
0,0,3,0,0.01
0,0,3,1,0.01
0,0,3,2,0.01
0,0,3,3,0.01
0,0,3,4,0.01
0,0,3,5,0.01
0,0,3,6,0.01
0,0,3,7,0.01
0,0,3,8,0.01
0,0,3,9,0.01
0,0,4,0,0.01
0,0,4,1,0.01
0,0,4,2,0.01
0,0,4,3,0.01
0,0,4,4,0.0109091
0,0,4,5,0.0109091
0,0,4,6,0.0109091
0,0,4,7,0.01
0,0,4,8,0.01
0,0,4,9,0.01
0,0,5,0,0.01
0,0,5,1,0.01
0,0,5,2,0.01
0,0,5,3,0.01
0,0,5,4,0.0109091
0,0,5,5,0.101727
0,0,5,6,0.0109091
0,0,5,7,0.01
0,0,5,8,0.01
0,0,5,9,0.01
0,0,6,0,0.01
0,0,6,1,0.01
0,0,6,2,0.01
0,0,6,3,0.01
0,0,6,4,0.0109091
0,0,6,5,0.0109091
0,0,6,6,0.0109091
0,0,6,7,0.01
0,0,6,8,0.01
0,0,6,9,0.01
0,0,7,0,0.01
0,0,7,1,0.01
0,0,7,2,0.01
0,0,7,3,0.01
0,0,7,4,0.01
0,0,7,5,0.01
0,0,7,6,0.01
0,0,7,7,0.01
0,0,7,8,0.01
0,0,7,9,0.01
0,0,8,0,0.01
0,0,8,1,0.01
0,0,8,2,0.01
0,0,8,3,0.01
0,0,8,4,0.01
0,0,8,5,0.01
0,0,8,6,0.01
0,0,8,7,0.01
0,0,8,8,0.01
0,0,8,9,0.01
0,0,9,0,0.01
0,0,9,1,0.01
0,0,9,2,0.01
0,0,9,3,0.01
0,0,9,4,0.01
0,0,9,5,0.01
0,0,9,6,0.01
0,0,9,7,0.01
0,0,9,8,0.01
0,0,9,9,0.01
33,0.33,0,0,0.289447
33,0.33,0,1,0.289448
33,0.33,0,2,0.289449
33,0.33,0,3,0.289452
33,0.33,0,4,0.289454
33,0.33,0,5,0.289454
33,0.33,0,6,0.289454
33,0.33,0,7,0.289452
33,0.33,0,8,0.289449
33,0.33,0,9,0.289448
33,0.33,1,0,0.289448
33,0.33,1,1,0.289452
33,0.33,1,2,0.289461
33,0.33,1,3,0.289477
33,0.33,1,4,0.289493
33,0.33,1,5,0.2895
33,0.33,1,6,0.289493
33,0.33,1,7,0.289477
33,0.33,1,8,0.289461
33,0.33,1,9,0.289452
33,0.33,2,0,0.289449
33,0.33,2,1,0.289461
33,0.33,2,2,0.289513
33,0.33,2,3,0.289607
33,0.33,2,4,0.289721
33,0.33,2,5,0.289766
33,0.33,2,6,0.289721
33,0.33,2,7,0.289607
33,0.33,2,8,0.289513
33,0.33,2,9,0.289463
33,0.33,3,0,0.289452
33,0.33,3,1,0.289477
33,0.33,3,2,0.289607
33,0.33,3,3,0.290086
33,0.33,3,4,0.290626
33,0.33,3,5,0.290979
33,0.33,3,6,0.290626
33,0.33,3,7,0.290086
33,0.33,3,8,0.289608
33,0.33,3,9,0.289481
33,0.33,4,0,0.289454
33,0.33,4,1,0.289493
33,0.33,4,2,0.289721
33,0.33,4,3,0.290626
33,0.33,4,4,0.29342
33,0.33,4,5,0.294104
33,0.33,4,6,0.29342
33,0.33,4,7,0.290626
33,0.33,4,8,0.289722
33,0.33,4,9,0.289499
33,0.33,5,0,0.289454
33,0.33,5,1,0.2895
33,0.33,5,2,0.289766
33,0.33,5,3,0.290979
33,0.33,5,4,0.294104
33,0.33,5,5,0.301732
33,0.33,5,6,0.294104
33,0.33,5,7,0.290979
33,0.33,5,8,0.289767
33,0.33,5,9,0.289507
33,0.33,6,0,0.289454
33,0.33,6,1,0.289493
33,0.33,6,2,0.289721
33,0.33,6,3,0.290626
33,0.33,6,4,0.29342
33,0.33,6,5,0.294104
33,0.33,6,6,0.29342
33,0.33,6,7,0.290626
33,0.33,6,8,0.289722
33,0.33,6,9,0.289499
33,0.33,7,0,0.289452
33,0.33,7,1,0.289477
33,0.33,7,2,0.289607
33,0.33,7,3,0.290086
33,0.33,7,4,0.290626
33,0.33,7,5,0.290979
33,0.33,7,6,0.290626
33,0.33,7,7,0.290086
33,0.33,7,8,0.289608
33,0.33,7,9,0.289481
33,0.33,8,0,0.289449
33,0.33,8,1,0.289461
33,0.33,8,2,0.289513
33,0.33,8,3,0.289608
33,0.33,8,4,0.289722
33,0.33,8,5,0.289767
33,0.33,8,6,0.289722
33,0.33,8,7,0.289608
33,0.33,8,8,0.289513
33,0.33,8,9,0.289463
33,0.33,9,0,0.289448
33,0.33,9,1,0.289452
33,0.33,9,2,0.289463
33,0.33,9,3,0.289481
33,0.33,9,4,0.289499
33,0.33,9,5,0.289507
33,0.33,9,6,0.289499
33,0.33,9,7,0.289481
33,0.33,9,8,0.289463
33,0.33,9,9,0.289453
66,0.66,0,0,0.490016
66,0.66,0,1,0.49002
66,0.66,0,2,0.490027
66,0.66,0,3,0.490036
66,0.66,0,4,0.490044
66,0.66,0,5,0.490047
66,0.66,0,6,0.490044
66,0.66,0,7,0.490036
66,0.66,0,8,0.490027
66,0.66,0,9,0.490021
66,0.66,1,0,0.49002
66,0.66,1,1,0.490031
66,0.66,1,2,0.490055
66,0.66,1,3,0.49009
66,0.66,1,4,0.490124
66,0.66,1,5,0.490138
66,0.66,1,6,0.490124
66,0.66,1,7,0.490091
66,0.66,1,8,0.490056
66,0.66,1,9,0.490034
66,0.66,2,0,0.490027
66,0.66,2,1,0.490055
66,0.66,2,2,0.490134
66,0.66,2,3,0.490265
66,0.66,2,4,0.490406
66,0.66,2,5,0.490463
66,0.66,2,6,0.490406
66,0.66,2,7,0.490265
66,0.66,2,8,0.490136
66,0.66,2,9,0.490063
66,0.66,3,0,0.490036
66,0.66,3,1,0.49009
66,0.66,3,2,0.490265
66,0.66,3,3,0.49066
66,0.66,3,4,0.49109
66,0.66,3,5,0.491322
66,0.66,3,6,0.49109
66,0.66,3,7,0.49066
66,0.66,3,8,0.490269
66,0.66,3,9,0.490108
66,0.66,4,0,0.490044
66,0.66,4,1,0.490124
66,0.66,4,2,0.490406
66,0.66,4,3,0.49109
66,0.66,4,4,0.492287
66,0.66,4,5,0.492707
66,0.66,4,6,0.492287
66,0.66,4,7,0.491091
66,0.66,4,8,0.490411
66,0.66,4,9,0.49015
66,0.66,5,0,0.490047
66,0.66,5,1,0.490138
66,0.66,5,2,0.490463
66,0.66,5,3,0.491322
66,0.66,5,4,0.492707
66,0.66,5,5,0.494248
66,0.66,5,6,0.492707
66,0.66,5,7,0.491322
66,0.66,5,8,0.490468
66,0.66,5,9,0.490168
66,0.66,6,0,0.490044
66,0.66,6,1,0.490124
66,0.66,6,2,0.490406
66,0.66,6,3,0.49109
66,0.66,6,4,0.492287
66,0.66,6,5,0.492707
66,0.66,6,6,0.492287
66,0.66,6,7,0.491091
66,0.66,6,8,0.490411
66,0.66,6,9,0.49015
66,0.66,7,0,0.490036
66,0.66,7,1,0.490091
66,0.66,7,2,0.490265
66,0.66,7,3,0.49066
66,0.66,7,4,0.491091
66,0.66,7,5,0.491322
66,0.66,7,6,0.491091
66,0.66,7,7,0.490661
66,0.66,7,8,0.490269
66,0.66,7,9,0.490108
66,0.66,8,0,0.490027
66,0.66,8,1,0.490056
66,0.66,8,2,0.490136
66,0.66,8,3,0.490269
66,0.66,8,4,0.490411
66,0.66,8,5,0.490468
66,0.66,8,6,0.490411
66,0.66,8,7,0.490269
66,0.66,8,8,0.490138
66,0.66,8,9,0.490064
66,0.66,9,0,0.490021
66,0.66,9,1,0.490034
66,0.66,9,2,0.490063
66,0.66,9,3,0.490108
66,0.66,9,4,0.49015
66,0.66,9,5,0.490168
66,0.66,9,6,0.49015
66,0.66,9,7,0.490108
66,0.66,9,8,0.490064
66,0.66,9,9,0.490037
99,0.99,0,0,0.633972
99,0.99,0,1,0.633978
99,0.99,0,2,0.633989
99,0.99,0,3,0.634002
99,0.99,0,4,0.634014
99,0.99,0,5,0.634019
99,0.99,0,6,0.634014
99,0.99,0,7,0.634003
99,0.99,0,8,0.63399
99,0.99,0,9,0.63398
99,0.99,1,0,0.633978
99,0.99,1,1,0.633992
99,0.99,1,2,0.63402
99,0.99,1,3,0.634059
99,0.99,1,4,0.634095
99,0.99,1,5,0.634109
99,0.99,1,6,0.634095
99,0.99,1,7,0.63406
99,0.99,1,8,0.634022
99,0.99,1,9,0.633998
99,0.99,2,0,0.633989
99,0.99,2,1,0.63402
99,0.99,2,2,0.634095
99,0.99,2,3,0.634207
99,0.99,2,4,0.63432
99,0.99,2,5,0.634366
99,0.99,2,6,0.63432
99,0.99,2,7,0.634208
99,0.99,2,8,0.634099
99,0.99,2,9,0.634034
99,0.99,3,0,0.634002
99,0.99,3,1,0.634059
99,0.99,3,2,0.634207
99,0.99,3,3,0.634475
99,0.99,3,4,0.634751
99,0.99,3,5,0.634884
99,0.99,3,6,0.634751
99,0.99,3,7,0.634476
99,0.99,3,8,0.634214
99,0.99,3,9,0.634086
99,0.99,4,0,0.634014
99,0.99,4,1,0.634095
99,0.99,4,2,0.63432
99,0.99,4,3,0.634751
99,0.99,4,4,0.635326
99,0.99,4,5,0.635553
99,0.99,4,6,0.635327
99,0.99,4,7,0.634753
99,0.99,4,8,0.634329
99,0.99,4,9,0.634133
99,0.99,5,0,0.634019
99,0.99,5,1,0.634109
99,0.99,5,2,0.634366
99,0.99,5,3,0.634884
99,0.99,5,4,0.635553
99,0.99,5,5,0.636041
99,0.99,5,6,0.635553
99,0.99,5,7,0.634887
99,0.99,5,8,0.634376
99,0.99,5,9,0.634153
99,0.99,6,0,0.634014
99,0.99,6,1,0.634095
99,0.99,6,2,0.63432
99,0.99,6,3,0.634751
99,0.99,6,4,0.635327
99,0.99,6,5,0.635553
99,0.99,6,6,0.635327
99,0.99,6,7,0.634753
99,0.99,6,8,0.634329
99,0.99,6,9,0.634133
99,0.99,7,0,0.634003
99,0.99,7,1,0.63406
99,0.99,7,2,0.634208
99,0.99,7,3,0.634476
99,0.99,7,4,0.634753
99,0.99,7,5,0.634887
99,0.99,7,6,0.634753
99,0.99,7,7,0.634478
99,0.99,7,8,0.634215
99,0.99,7,9,0.634086
99,0.99,8,0,0.63399
99,0.99,8,1,0.634022
99,0.99,8,2,0.634099
99,0.99,8,3,0.634214
99,0.99,8,4,0.634329
99,0.99,8,5,0.634376
99,0.99,8,6,0.634329
99,0.99,8,7,0.634215
99,0.99,8,8,0.634103
99,0.99,8,9,0.634036
99,0.99,9,0,0.63398
99,0.99,9,1,0.633998
99,0.99,9,2,0.634034
99,0.99,9,3,0.634086
99,0.99,9,4,0.634133
99,0.99,9,5,0.634153
99,0.99,9,6,0.634133
99,0.99,9,7,0.634086
99,0.99,9,8,0.634036
99,0.99,9,9,0.634003
132,1.32,0,0,0.737294
132,1.32,0,1,0.737301
132,1.32,0,2,0.737313
132,1.32,0,3,0.737327
132,1.32,0,4,0.73734
132,1.32,0,5,0.737345
132,1.32,0,6,0.73734
132,1.32,0,7,0.737328
132,1.32,0,8,0.737314
132,1.32,0,9,0.737303
132,1.32,1,0,0.737301
132,1.32,1,1,0.737314
132,1.32,1,2,0.737341
132,1.32,1,3,0.737375
132,1.32,1,4,0.737405
132,1.32,1,5,0.737418
132,1.32,1,6,0.737406
132,1.32,1,7,0.737376
132,1.32,1,8,0.737343
132,1.32,1,9,0.737321
132,1.32,2,0,0.737313
132,1.32,2,1,0.737341
132,1.32,2,2,0.737401
132,1.32,2,3,0.737485
132,1.32,2,4,0.737565
132,1.32,2,5,0.737598
132,1.32,2,6,0.737566
132,1.32,2,7,0.737487
132,1.32,2,8,0.737406
132,1.32,2,9,0.737357
132,1.32,3,0,0.737327
132,1.32,3,1,0.737375
132,1.32,3,2,0.737485
132,1.32,3,3,0.73766
132,1.32,3,4,0.737831
132,1.32,3,5,0.737909
132,1.32,3,6,0.737832
132,1.32,3,7,0.737662
132,1.32,3,8,0.737494
132,1.32,3,9,0.737404
132,1.32,4,0,0.73734
132,1.32,4,1,0.737405
132,1.32,4,2,0.737565
132,1.32,4,3,0.737831
132,1.32,4,4,0.738134
132,1.32,4,5,0.738258
132,1.32,4,6,0.738135
132,1.32,4,7,0.737834
132,1.32,4,8,0.737577
132,1.32,4,9,0.737446
132,1.32,5,0,0.737345
132,1.32,5,1,0.737418
132,1.32,5,2,0.737598
132,1.32,5,3,0.737909
132,1.32,5,4,0.738258
132,1.32,5,5,0.738458
132,1.32,5,6,0.738259
132,1.32,5,7,0.737912
132,1.32,5,8,0.737611
132,1.32,5,9,0.737463
132,1.32,6,0,0.73734
132,1.32,6,1,0.737406
132,1.32,6,2,0.737566
132,1.32,6,3,0.737832
132,1.32,6,4,0.738135
132,1.32,6,5,0.738259
132,1.32,6,6,0.738136
132,1.32,6,7,0.737835
132,1.32,6,8,0.737578
132,1.32,6,9,0.737446
132,1.32,7,0,0.737328
132,1.32,7,1,0.737376
132,1.32,7,2,0.737487
132,1.32,7,3,0.737662
132,1.32,7,4,0.737834
132,1.32,7,5,0.737912
132,1.32,7,6,0.737835
132,1.32,7,7,0.737664
132,1.32,7,8,0.737496
132,1.32,7,9,0.737405
132,1.32,8,0,0.737314
132,1.32,8,1,0.737343
132,1.32,8,2,0.737406
132,1.32,8,3,0.737494
132,1.32,8,4,0.737577
132,1.32,8,5,0.737611
132,1.32,8,6,0.737578
132,1.32,8,7,0.737496
132,1.32,8,8,0.737412
132,1.32,8,9,0.73736
132,1.32,9,0,0.737303
132,1.32,9,1,0.737321
132,1.32,9,2,0.737357
132,1.32,9,3,0.737404
132,1.32,9,4,0.737446
132,1.32,9,5,0.737463
132,1.32,9,6,0.737446
132,1.32,9,7,0.737405
132,1.32,9,8,0.73736
132,1.32,9,9,0.737328
165,1.65,0,0,0.811451
165,1.65,0,1,0.811458
165,1.65,0,2,0.811469
165,1.65,0,3,0.811483
165,1.65,0,4,0.811494
165,1.65,0,5,0.811499
165,1.65,0,6,0.811494
165,1.65,0,7,0.811483
165,1.65,0,8,0.81147
165,1.65,0,9,0.81146
165,1.65,1,0,0.811458
165,1.65,1,1,0.811469
165,1.65,1,2,0.811491
165,1.65,1,3,0.811519
165,1.65,1,4,0.811543
165,1.65,1,5,0.811552
165,1.65,1,6,0.811543
165,1.65,1,7,0.81152
165,1.65,1,8,0.811494
165,1.65,1,9,0.811477
165,1.65,2,0,0.811469
165,1.65,2,1,0.811491
165,1.65,2,2,0.811536
165,1.65,2,3,0.811597
165,1.65,2,4,0.811652
165,1.65,2,5,0.811674
165,1.65,2,6,0.811652
165,1.65,2,7,0.811599
165,1.65,2,8,0.811542
165,1.65,2,9,0.811507
165,1.65,3,0,0.811483
165,1.65,3,1,0.811519
165,1.65,3,2,0.811597
165,1.65,3,3,0.81171
165,1.65,3,4,0.811816
165,1.65,3,5,0.811862
165,1.65,3,6,0.811817
165,1.65,3,7,0.811712
165,1.65,3,8,0.811606
165,1.65,3,9,0.811546
165,1.65,4,0,0.811494
165,1.65,4,1,0.811543
165,1.65,4,2,0.811652
165,1.65,4,3,0.811816
165,1.65,4,4,0.811985
165,1.65,4,5,0.812055
165,1.65,4,6,0.811986
165,1.65,4,7,0.81182
165,1.65,4,8,0.811664
165,1.65,4,9,0.81158
165,1.65,5,0,0.811499
165,1.65,5,1,0.811552
165,1.65,5,2,0.811674
165,1.65,5,3,0.811862
165,1.65,5,4,0.812055
165,1.65,5,5,0.812151
165,1.65,5,6,0.812056
165,1.65,5,7,0.811866
165,1.65,5,8,0.811688
165,1.65,5,9,0.811593
165,1.65,6,0,0.811494
165,1.65,6,1,0.811543
165,1.65,6,2,0.811652
165,1.65,6,3,0.811817
165,1.65,6,4,0.811986
165,1.65,6,5,0.812056
165,1.65,6,6,0.811987
165,1.65,6,7,0.81182
165,1.65,6,8,0.811665
165,1.65,6,9,0.81158
165,1.65,7,0,0.811483
165,1.65,7,1,0.81152
165,1.65,7,2,0.811599
165,1.65,7,3,0.811712
165,1.65,7,4,0.81182
165,1.65,7,5,0.811866
165,1.65,7,6,0.81182
165,1.65,7,7,0.811715
165,1.65,7,8,0.811608
165,1.65,7,9,0.811547
165,1.65,8,0,0.81147
165,1.65,8,1,0.811494
165,1.65,8,2,0.811542
165,1.65,8,3,0.811606
165,1.65,8,4,0.811664
165,1.65,8,5,0.811688
165,1.65,8,6,0.811665
165,1.65,8,7,0.811608
165,1.65,8,8,0.811548
165,1.65,8,9,0.81151
165,1.65,9,0,0.81146
165,1.65,9,1,0.811477
165,1.65,9,2,0.811507
165,1.65,9,3,0.811546
165,1.65,9,4,0.81158
165,1.65,9,5,0.811593
165,1.65,9,6,0.81158
165,1.65,9,7,0.811547
165,1.65,9,8,0.81151
165,1.65,9,9,0.811484
198,1.98,0,0,0.864675
198,1.98,0,1,0.864681
198,1.98,0,2,0.864691
198,1.98,0,3,0.864703
198,1.98,0,4,0.864712
198,1.98,0,5,0.864716
198,1.98,0,6,0.864712
198,1.98,0,7,0.864703
198,1.98,0,8,0.864693
198,1.98,0,9,0.864684
198,1.98,1,0,0.864681
198,1.98,1,1,0.864691
198,1.98,1,2,0.864708
198,1.98,1,3,0.864729
198,1.98,1,4,0.864747
198,1.98,1,5,0.864754
198,1.98,1,6,0.864747
198,1.98,1,7,0.86473
198,1.98,1,8,0.864711
198,1.98,1,9,0.864698
198,1.98,2,0,0.864691
198,1.98,2,1,0.864708
198,1.98,2,2,0.86474
198,1.98,2,3,0.864782
198,1.98,2,4,0.864819
198,1.98,2,5,0.864834
198,1.98,2,6,0.86482
198,1.98,2,7,0.864785
198,1.98,2,8,0.864746
198,1.98,2,9,0.864722
198,1.98,3,0,0.864703
198,1.98,3,1,0.864729
198,1.98,3,2,0.864782
198,1.98,3,3,0.864855
198,1.98,3,4,0.864922
198,1.98,3,5,0.86495
198,1.98,3,6,0.864923
198,1.98,3,7,0.864859
198,1.98,3,8,0.864791
198,1.98,3,9,0.864752
198,1.98,4,0,0.864712
198,1.98,4,1,0.864747
198,1.98,4,2,0.864819
198,1.98,4,3,0.864922
198,1.98,4,4,0.86502
198,1.98,4,5,0.86506
198,1.98,4,6,0.865021
198,1.98,4,7,0.864926
198,1.98,4,8,0.864831
198,1.98,4,9,0.864778
198,1.98,5,0,0.864716
198,1.98,5,1,0.864754
198,1.98,5,2,0.864834
198,1.98,5,3,0.86495
198,1.98,5,4,0.86506
198,1.98,5,5,0.865111
198,1.98,5,6,0.865062
198,1.98,5,7,0.864954
198,1.98,5,8,0.864847
198,1.98,5,9,0.864788
198,1.98,6,0,0.864712
198,1.98,6,1,0.864747
198,1.98,6,2,0.86482
198,1.98,6,3,0.864923
198,1.98,6,4,0.865021
198,1.98,6,5,0.865062
198,1.98,6,6,0.865022
198,1.98,6,7,0.864926
198,1.98,6,8,0.864832
198,1.98,6,9,0.864778
198,1.98,7,0,0.864703
198,1.98,7,1,0.86473
198,1.98,7,2,0.864785
198,1.98,7,3,0.864859
198,1.98,7,4,0.864926
198,1.98,7,5,0.864954
198,1.98,7,6,0.864926
198,1.98,7,7,0.864862
198,1.98,7,8,0.864794
198,1.98,7,9,0.864753
198,1.98,8,0,0.864693
198,1.98,8,1,0.864711
198,1.98,8,2,0.864746
198,1.98,8,3,0.864791
198,1.98,8,4,0.864831
198,1.98,8,5,0.864847
198,1.98,8,6,0.864832
198,1.98,8,7,0.864794
198,1.98,8,8,0.864752
198,1.98,8,9,0.864725
198,1.98,9,0,0.864684
198,1.98,9,1,0.864698
198,1.98,9,2,0.864722
198,1.98,9,3,0.864752
198,1.98,9,4,0.864778
198,1.98,9,5,0.864788
198,1.98,9,6,0.864778
198,1.98,9,7,0.864753
198,1.98,9,8,0.864725
198,1.98,9,9,0.864705
