S,T,I,J,X
0,0,0,0,0
0,0,0,1,0
0,0,0,2,0
0,0,0,3,0
0,0,0,4,0
0,0,0,5,0
0,0,0,6,0
0,0,0,7,0
0,0,0,8,0
0,0,0,9,0
0,0,1,0,0
0,0,1,1,0
0,0,1,2,0
0,0,1,3,0
0,0,1,4,0
0,0,1,5,0
0,0,1,6,0
0,0,1,7,0
0,0,1,8,0
0,0,1,9,0
0,0,2,0,0
0,0,2,1,0
0,0,2,2,0
0,0,2,3,0
0,0,2,4,0
0,0,2,5,0
0,0,2,6,0
0,0,2,7,0
0,0,2,8,0
0,0,2,9,0
0,0,3,0,0
0,0,3,1,0
0,0,3,2,0
0,0,3,3,0
0,0,3,4,0
0,0,3,5,0
0,0,3,6,0
0,0,3,7,0
0,0,3,8,0
0,0,3,9,0
0,0,4,0,0
0,0,4,1,0
0,0,4,2,0
0,0,4,3,0
0,0,4,4,0
0,0,4,5,0
0,0,4,6,0
0,0,4,7,0
0,0,4,8,0
0,0,4,9,0
0,0,5,0,0
0,0,5,1,0
0,0,5,2,0
0,0,5,3,0
0,0,5,4,0
0,0,5,5,0.1
0,0,5,6,0
0,0,5,7,0
0,0,5,8,0
0,0,5,9,0
0,0,6,0,0
0,0,6,1,0
0,0,6,2,0
0,0,6,3,0
0,0,6,4,0
0,0,6,5,0
0,0,6,6,0
0,0,6,7,0
0,0,6,8,0
0,0,6,9,0
0,0,7,0,0
0,0,7,1,0
0,0,7,2,0
0,0,7,3,0
0,0,7,4,0
0,0,7,5,0
0,0,7,6,0
0,0,7,7,0
0,0,7,8,0
0,0,7,9,0
0,0,8,0,0
0,0,8,1,0
0,0,8,2,0
0,0,8,3,0
0,0,8,4,0
0,0,8,5,0
0,0,8,6,0
0,0,8,7,0
0,0,8,8,0
0,0,8,9,0
0,0,9,0,0
0,0,9,1,0
0,0,9,2,0
0,0,9,3,0
0,0,9,4,0
0,0,9,5,0
0,0,9,6,0
0,0,9,7,0
0,0,9,8,0
0,0,9,9,0
0,0,0,0,0.0001
0,0,0,1,0.0001
0,0,0,2,0.0001
0,0,0,3,0.0001
0,0,0,4,0.0001
0,0,0,5,0.0001
0,0,0,6,0.0001
0,0,0,7,0.0001
0,0,0,8,0.0001
0,0,0,9,0.0001
0,0,1,0,0.0001
0,0,1,1,0.0001
0,0,1,2,0.0001
0,0,1,3,0.0001
0,0,1,4,0.0001
0,0,1,5,0.0001
0,0,1,6,0.0001
0,0,1,7,0.0001
0,0,1,8,0.0001
0,0,1,9,0.0001
0,0,2,0,0.0001
0,0,2,1,0.0001
0,0,2,2,0.0001
0,0,2,3,0.0001
0,0,2,4,0.0001
0,0,2,5,0.0001
0,0,2,6,0.0001
0,0,2,7,0.0001
0,0,2,8,0.0001
0,0,2,9,0.0001
0,0,3,0,0.0001
0,0,3,1,0.0001
0,0,3,2,0.0001
0,0,3,3,0.0001
0,0,3,4,0.0001
0,0,3,5,0.0001
0,0,3,6,0.0001
0,0,3,7,0.0001
0,0,3,8,0.0001
0,0,3,9,0.0001
0,0,4,0,0.0001
0,0,4,1,0.0001
0,0,4,2,0.0001
0,0,4,3,0.0001
0,0,4,4,0.0001
0,0,4,5,0.000109091
0,0,4,6,0.0001
0,0,4,7,0.0001
0,0,4,8,0.0001
0,0,4,9,0.0001
0,0,5,0,0.0001
0,0,5,1,0.0001
0,0,5,2,0.0001
0,0,5,3,0.0001
0,0,5,4,0.000109091
0,0,5,5,0.100054
0,0,5,6,0.000109091
0,0,5,7,0.0001
0,0,5,8,0.0001
0,0,5,9,0.0001
0,0,6,0,0.0001
0,0,6,1,0.0001
0,0,6,2,0.0001
0,0,6,3,0.0001
0,0,6,4,0.0001
0,0,6,5,0.000109091
0,0,6,6,0.0001
0,0,6,7,0.0001
0,0,6,8,0.0001
0,0,6,9,0.0001
0,0,7,0,0.0001
0,0,7,1,0.0001
0,0,7,2,0.0001
0,0,7,3,0.0001
0,0,7,4,0.0001
0,0,7,5,0.0001
0,0,7,6,0.0001
0,0,7,7,0.0001
0,0,7,8,0.0001
0,0,7,9,0.0001
0,0,8,0,0.0001
0,0,8,1,0.0001
0,0,8,2,0.0001
0,0,8,3,0.0001
0,0,8,4,0.0001
0,0,8,5,0.0001
0,0,8,6,0.0001
0,0,8,7,0.0001
0,0,8,8,0.0001
0,0,8,9,0.0001
0,0,9,0,0.0001
0,0,9,1,0.0001
0,0,9,2,0.0001
0,0,9,3,0.0001
0,0,9,4,0.0001
0,0,9,5,0.0001
0,0,9,6,0.0001
0,0,9,7,0.0001
0,0,9,8,0.0001
0,0,9,9,0.0001
1,0.0001,0,0,0.00019999
1,0.0001,0,1,0.00019999
1,0.0001,0,2,0.00019999
1,0.0001,0,3,0.00019999
1,0.0001,0,4,0.00019999
1,0.0001,0,5,0.00019999
1,0.0001,0,6,0.00019999
1,0.0001,0,7,0.00019999
1,0.0001,0,8,0.00019999
1,0.0001,0,9,0.00019999
1,0.0001,1,0,0.00019999
1,0.0001,1,1,0.00019999
1,0.0001,1,2,0.00019999
1,0.0001,1,3,0.00019999
1,0.0001,1,4,0.00019999
1,0.0001,1,5,0.00019999
1,0.0001,1,6,0.00019999
1,0.0001,1,7,0.00019999
1,0.0001,1,8,0.00019999
1,0.0001,1,9,0.00019999
1,0.0001,2,0,0.00019999
1,0.0001,2,1,0.00019999
1,0.0001,2,2,0.00019999
1,0.0001,2,3,0.00019999
1,0.0001,2,4,0.00019999
1,0.0001,2,5,0.00019999
1,0.0001,2,6,0.00019999
1,0.0001,2,7,0.00019999
1,0.0001,2,8,0.00019999
1,0.0001,2,9,0.00019999
1,0.0001,3,0,0.00019999
1,0.0001,3,1,0.00019999
1,0.0001,3,2,0.00019999
1,0.0001,3,3,0.00019999
1,0.0001,3,4,0.00019999
1,0.0001,3,5,0.000199991
1,0.0001,3,6,0.00019999
1,0.0001,3,7,0.00019999
1,0.0001,3,8,0.00019999
1,0.0001,3,9,0.00019999
1,0.0001,4,0,0.00019999
1,0.0001,4,1,0.00019999
1,0.0001,4,2,0.00019999
1,0.0001,4,3,0.00019999
1,0.0001,4,4,0.000199992
1,0.0001,4,5,0.000218162
1,0.0001,4,6,0.000199992
1,0.0001,4,7,0.00019999
1,0.0001,4,8,0.00019999
1,0.0001,4,9,0.00019999
1,0.0001,5,0,0.00019999
1,0.0001,5,1,0.00019999
1,0.0001,5,2,0.00019999
1,0.0001,5,3,0.000199991
1,0.0001,5,4,0.000218162
1,0.0001,5,5,0.100107
1,0.0001,5,6,0.000218162
1,0.0001,5,7,0.000199991
1,0.0001,5,8,0.00019999
1,0.0001,5,9,0.00019999
1,0.0001,6,0,0.00019999
1,0.0001,6,1,0.00019999
1,0.0001,6,2,0.00019999
1,0.0001,6,3,0.00019999
1,0.0001,6,4,0.000199992
1,0.0001,6,5,0.000218162
1,0.0001,6,6,0.000199992
1,0.0001,6,7,0.00019999
1,0.0001,6,8,0.00019999
1,0.0001,6,9,0.00019999
1,0.0001,7,0,0.00019999
1,0.0001,7,1,0.00019999
1,0.0001,7,2,0.00019999
1,0.0001,7,3,0.00019999
1,0.0001,7,4,0.00019999
1,0.0001,7,5,0.000199991
1,0.0001,7,6,0.00019999
1,0.0001,7,7,0.00019999
1,0.0001,7,8,0.00019999
1,0.0001,7,9,0.00019999
1,0.0001,8,0,0.00019999
1,0.0001,8,1,0.00019999
1,0.0001,8,2,0.00019999
1,0.0001,8,3,0.00019999
1,0.0001,8,4,0.00019999
1,0.0001,8,5,0.00019999
1,0.0001,8,6,0.00019999
1,0.0001,8,7,0.00019999
1,0.0001,8,8,0.00019999
1,0.0001,8,9,0.00019999
1,0.0001,9,0,0.00019999
1,0.0001,9,1,0.00019999
1,0.0001,9,2,0.00019999
1,0.0001,9,3,0.00019999
1,0.0001,9,4,0.00019999
1,0.0001,9,5,0.00019999
1,0.0001,9,6,0.00019999
1,0.0001,9,7,0.00019999
1,0.0001,9,8,0.00019999
1,0.0001,9,9,0.00019999
2,0.0002,0,0,0.00029997
2,0.0002,0,1,0.00029997
2,0.0002,0,2,0.00029997
2,0.0002,0,3,0.00029997
2,0.0002,0,4,0.00029997
2,0.0002,0,5,0.00029997
2,0.0002,0,6,0.00029997
2,0.0002,0,7,0.00029997
2,0.0002,0,8,0.00029997
2,0.0002,0,9,0.00029997
2,0.0002,1,0,0.00029997
2,0.0002,1,1,0.00029997
2,0.0002,1,2,0.00029997
2,0.0002,1,3,0.00029997
2,0.0002,1,4,0.00029997
2,0.0002,1,5,0.00029997
2,0.0002,1,6,0.00029997
2,0.0002,1,7,0.00029997
2,0.0002,1,8,0.00029997
2,0.0002,1,9,0.00029997
2,0.0002,2,0,0.00029997
2,0.0002,2,1,0.00029997
2,0.0002,2,2,0.00029997
2,0.0002,2,3,0.00029997
2,0.0002,2,4,0.00029997
2,0.0002,2,5,0.00029997
2,0.0002,2,6,0.00029997
2,0.0002,2,7,0.00029997
2,0.0002,2,8,0.00029997
2,0.0002,2,9,0.00029997
2,0.0002,3,0,0.00029997
2,0.0002,3,1,0.00029997
2,0.0002,3,2,0.00029997
2,0.0002,3,3,0.00029997
2,0.0002,3,4,0.00029997
2,0.0002,3,5,0.000299973
2,0.0002,3,6,0.00029997
2,0.0002,3,7,0.00029997
2,0.0002,3,8,0.00029997
2,0.0002,3,9,0.00029997
2,0.0002,4,0,0.00029997
2,0.0002,4,1,0.00029997
2,0.0002,4,2,0.00029997
2,0.0002,4,3,0.00029997
2,0.0002,4,4,0.000299975
2,0.0002,4,5,0.000327212
2,0.0002,4,6,0.000299975
2,0.0002,4,7,0.00029997
2,0.0002,4,8,0.00029997
2,0.0002,4,9,0.00029997
2,0.0002,5,0,0.00029997
2,0.0002,5,1,0.00029997
2,0.0002,5,2,0.00029997
2,0.0002,5,3,0.000299973
2,0.0002,5,4,0.000327212
2,0.0002,5,5,0.100161
2,0.0002,5,6,0.000327212
2,0.0002,5,7,0.000299973
2,0.0002,5,8,0.00029997
2,0.0002,5,9,0.00029997
2,0.0002,6,0,0.00029997
2,0.0002,6,1,0.00029997
2,0.0002,6,2,0.00029997
2,0.0002,6,3,0.00029997
2,0.0002,6,4,0.000299975
2,0.0002,6,5,0.000327212
2,0.0002,6,6,0.000299975
2,0.0002,6,7,0.00029997
2,0.0002,6,8,0.00029997
2,0.0002,6,9,0.00029997
2,0.0002,7,0,0.00029997
2,0.0002,7,1,0.00029997
2,0.0002,7,2,0.00029997
2,0.0002,7,3,0.00029997
2,0.0002,7,4,0.00029997
2,0.0002,7,5,0.000299973
2,0.0002,7,6,0.00029997
2,0.0002,7,7,0.00029997
2,0.0002,7,8,0.00029997
2,0.0002,7,9,0.00029997
2,0.0002,8,0,0.00029997
2,0.0002,8,1,0.00029997
2,0.0002,8,2,0.00029997
2,0.0002,8,3,0.00029997
2,0.0002,8,4,0.00029997
2,0.0002,8,5,0.00029997
2,0.0002,8,6,0.00029997
2,0.0002,8,7,0.00029997
2,0.0002,8,8,0.00029997
2,0.0002,8,9,0.00029997
2,0.0002,9,0,0.00029997
2,0.0002,9,1,0.00029997
2,0.0002,9,2,0.00029997
2,0.0002,9,3,0.00029997
2,0.0002,9,4,0.00029997
2,0.0002,9,5,0.00029997
2,0.0002,9,6,0.00029997
2,0.0002,9,7,0.00029997
2,0.0002,9,8,0.00029997
2,0.0002,9,9,0.00029997
3,0.0003,0,0,0.00039994
3,0.0003,0,1,0.00039994
3,0.0003,0,2,0.00039994
3,0.0003,0,3,0.00039994
3,0.0003,0,4,0.00039994
3,0.0003,0,5,0.00039994
3,0.0003,0,6,0.00039994
3,0.0003,0,7,0.00039994
3,0.0003,0,8,0.00039994
3,0.0003,0,9,0.00039994
3,0.0003,1,0,0.00039994
3,0.0003,1,1,0.00039994
3,0.0003,1,2,0.00039994
3,0.0003,1,3,0.00039994
3,0.0003,1,4,0.00039994
3,0.0003,1,5,0.00039994
3,0.0003,1,6,0.00039994
3,0.0003,1,7,0.00039994
3,0.0003,1,8,0.00039994
3,0.0003,1,9,0.00039994
3,0.0003,2,0,0.00039994
3,0.0003,2,1,0.00039994
3,0.0003,2,2,0.00039994
3,0.0003,2,3,0.00039994
3,0.0003,2,4,0.00039994
3,0.0003,2,5,0.00039994
3,0.0003,2,6,0.00039994
3,0.0003,2,7,0.00039994
3,0.0003,2,8,0.00039994
3,0.0003,2,9,0.00039994
3,0.0003,3,0,0.00039994
3,0.0003,3,1,0.00039994
3,0.0003,3,2,0.00039994
3,0.0003,3,3,0.00039994
3,0.0003,3,4,0.00039994
3,0.0003,3,5,0.000399945
3,0.0003,3,6,0.00039994
3,0.0003,3,7,0.00039994
3,0.0003,3,8,0.00039994
3,0.0003,3,9,0.00039994
3,0.0003,4,0,0.00039994
3,0.0003,4,1,0.00039994
3,0.0003,4,2,0.00039994
3,0.0003,4,3,0.00039994
3,0.0003,4,4,0.000399951
3,0.0003,4,5,0.000436243
3,0.0003,4,6,0.000399951
3,0.0003,4,7,0.00039994
3,0.0003,4,8,0.00039994
3,0.0003,4,9,0.00039994
3,0.0003,5,0,0.00039994
3,0.0003,5,1,0.00039994
3,0.0003,5,2,0.00039994
3,0.0003,5,3,0.000399945
3,0.0003,5,4,0.000436243
3,0.0003,5,5,0.100215
3,0.0003,5,6,0.000436243
3,0.0003,5,7,0.000399945
3,0.0003,5,8,0.00039994
3,0.0003,5,9,0.00039994
3,0.0003,6,0,0.00039994
3,0.0003,6,1,0.00039994
3,0.0003,6,2,0.00039994
3,0.0003,6,3,0.00039994
3,0.0003,6,4,0.000399951
3,0.0003,6,5,0.000436243
3,0.0003,6,6,0.000399951
3,0.0003,6,7,0.00039994
3,0.0003,6,8,0.00039994
3,0.0003,6,9,0.00039994
3,0.0003,7,0,0.00039994
3,0.0003,7,1,0.00039994
3,0.0003,7,2,0.00039994
3,0.0003,7,3,0.00039994
3,0.0003,7,4,0.00039994
3,0.0003,7,5,0.000399945
3,0.0003,7,6,0.00039994
3,0.0003,7,7,0.00039994
3,0.0003,7,8,0.00039994
3,0.0003,7,9,0.00039994
3,0.0003,8,0,0.00039994
3,0.0003,8,1,0.00039994
3,0.0003,8,2,0.00039994
3,0.0003,8,3,0.00039994
3,0.0003,8,4,0.00039994
3,0.0003,8,5,0.00039994
3,0.0003,8,6,0.00039994
3,0.0003,8,7,0.00039994
3,0.0003,8,8,0.00039994
3,0.0003,8,9,0.00039994
3,0.0003,9,0,0.00039994
3,0.0003,9,1,0.00039994
3,0.0003,9,2,0.00039994
3,0.0003,9,3,0.00039994
3,0.0003,9,4,0.00039994
3,0.0003,9,5,0.00039994
3,0.0003,9,6,0.00039994
3,0.0003,9,7,0.00039994
3,0.0003,9,8,0.00039994
3,0.0003,9,9,0.00039994
4,0.0004,0,0,0.0004999
4,0.0004,0,1,0.0004999
4,0.0004,0,2,0.0004999
4,0.0004,0,3,0.0004999
4,0.0004,0,4,0.0004999
4,0.0004,0,5,0.0004999
4,0.0004,0,6,0.0004999
4,0.0004,0,7,0.0004999
4,0.0004,0,8,0.0004999
4,0.0004,0,9,0.0004999
4,0.0004,1,0,0.0004999
4,0.0004,1,1,0.0004999
4,0.0004,1,2,0.0004999
4,0.0004,1,3,0.0004999
4,0.0004,1,4,0.0004999
4,0.0004,1,5,0.0004999
4,0.0004,1,6,0.0004999
4,0.0004,1,7,0.0004999
4,0.0004,1,8,0.0004999
4,0.0004,1,9,0.0004999
4,0.0004,2,0,0.0004999
4,0.0004,2,1,0.0004999
4,0.0004,2,2,0.0004999
4,0.0004,2,3,0.0004999
4,0.0004,2,4,0.0004999
4,0.0004,2,5,0.0004999
4,0.0004,2,6,0.0004999
4,0.0004,2,7,0.0004999
4,0.0004,2,8,0.0004999
4,0.0004,2,9,0.0004999
4,0.0004,3,0,0.0004999
4,0.0004,3,1,0.0004999
4,0.0004,3,2,0.0004999
4,0.0004,3,3,0.0004999
4,0.0004,3,4,0.0004999
4,0.0004,3,5,0.000499909
4,0.0004,3,6,0.0004999
4,0.0004,3,7,0.0004999
4,0.0004,3,8,0.0004999
4,0.0004,3,9,0.0004999
4,0.0004,4,0,0.0004999
4,0.0004,4,1,0.0004999
4,0.0004,4,2,0.0004999
4,0.0004,4,3,0.0004999
4,0.0004,4,4,0.000499918
4,0.0004,4,5,0.000545254
4,0.0004,4,6,0.000499918
4,0.0004,4,7,0.0004999
4,0.0004,4,8,0.0004999
4,0.0004,4,9,0.0004999
4,0.0004,5,0,0.0004999
4,0.0004,5,1,0.0004999
4,0.0004,5,2,0.0004999
4,0.0004,5,3,0.000499909
4,0.0004,5,4,0.000545254
4,0.0004,5,5,0.100268
4,0.0004,5,6,0.000545254
4,0.0004,5,7,0.000499909
4,0.0004,5,8,0.0004999
4,0.0004,5,9,0.0004999
4,0.0004,6,0,0.0004999
4,0.0004,6,1,0.0004999
4,0.0004,6,2,0.0004999
4,0.0004,6,3,0.0004999
4,0.0004,6,4,0.000499918
4,0.0004,6,5,0.000545254
4,0.0004,6,6,0.000499918
4,0.0004,6,7,0.0004999
4,0.0004,6,8,0.0004999
4,0.0004,6,9,0.0004999
4,0.0004,7,0,0.0004999
4,0.0004,7,1,0.0004999
4,0.0004,7,2,0.0004999
4,0.0004,7,3,0.0004999
4,0.0004,7,4,0.0004999
4,0.0004,7,5,0.000499909
4,0.0004,7,6,0.0004999
4,0.0004,7,7,0.0004999
4,0.0004,7,8,0.0004999
4,0.0004,7,9,0.0004999
4,0.0004,8,0,0.0004999
4,0.0004,8,1,0.0004999
4,0.0004,8,2,0.0004999
4,0.0004,8,3,0.0004999
4,0.0004,8,4,0.0004999
4,0.0004,8,5,0.0004999
4,0.0004,8,6,0.0004999
4,0.0004,8,7,0.0004999
4,0.0004,8,8,0.0004999
4,0.0004,8,9,0.0004999
4,0.0004,9,0,0.0004999
4,0.0004,9,1,0.0004999
4,0.0004,9,2,0.0004999
4,0.0004,9,3,0.0004999
4,0.0004,9,4,0.0004999
4,0.0004,9,5,0.0004999
4,0.0004,9,6,0.0004999
4,0.0004,9,7,0.0004999
4,0.0004,9,8,0.0004999
4,0.0004,9,9,0.0004999
5,0.0005,0,0,0.00059985
5,0.0005,0,1,0.00059985
5,0.0005,0,2,0.00059985
5,0.0005,0,3,0.00059985
5,0.0005,0,4,0.00059985
5,0.0005,0,5,0.00059985
5,0.0005,0,6,0.00059985
5,0.0005,0,7,0.00059985
5,0.0005,0,8,0.00059985
5,0.0005,0,9,0.00059985
5,0.0005,1,0,0.00059985
5,0.0005,1,1,0.00059985
5,0.0005,1,2,0.00059985
5,0.0005,1,3,0.00059985
5,0.0005,1,4,0.00059985
5,0.0005,1,5,0.00059985
5,0.0005,1,6,0.00059985
5,0.0005,1,7,0.00059985
5,0.0005,1,8,0.00059985
5,0.0005,1,9,0.00059985
5,0.0005,2,0,0.00059985
5,0.0005,2,1,0.00059985
5,0.0005,2,2,0.00059985
5,0.0005,2,3,0.00059985
5,0.0005,2,4,0.00059985
5,0.0005,2,5,0.00059985
5,0.0005,2,6,0.00059985
5,0.0005,2,7,0.00059985
5,0.0005,2,8,0.00059985
5,0.0005,2,9,0.00059985
5,0.0005,3,0,0.00059985
5,0.0005,3,1,0.00059985
5,0.0005,3,2,0.00059985
5,0.0005,3,3,0.00059985
5,0.0005,3,4,0.00059985
5,0.0005,3,5,0.000599864
5,0.0005,3,6,0.00059985
5,0.0005,3,7,0.00059985
5,0.0005,3,8,0.00059985
5,0.0005,3,9,0.00059985
5,0.0005,4,0,0.00059985
5,0.0005,4,1,0.00059985
5,0.0005,4,2,0.00059985
5,0.0005,4,3,0.00059985
5,0.0005,4,4,0.000599877
5,0.0005,4,5,0.000654244
5,0.0005,4,6,0.000599877
5,0.0005,4,7,0.00059985
5,0.0005,4,8,0.00059985
5,0.0005,4,9,0.00059985
5,0.0005,5,0,0.00059985
5,0.0005,5,1,0.00059985
5,0.0005,5,2,0.00059985
5,0.0005,5,3,0.000599864
5,0.0005,5,4,0.000654244
5,0.0005,5,5,0.100322
5,0.0005,5,6,0.000654244
5,0.0005,5,7,0.000599864
5,0.0005,5,8,0.00059985
5,0.0005,5,9,0.00059985
5,0.0005,6,0,0.00059985
5,0.0005,6,1,0.00059985
5,0.0005,6,2,0.00059985
5,0.0005,6,3,0.00059985
5,0.0005,6,4,0.000599877
5,0.0005,6,5,0.000654244
5,0.0005,6,6,0.000599877
5,0.0005,6,7,0.00059985
5,0.0005,6,8,0.00059985
5,0.0005,6,9,0.00059985
5,0.0005,7,0,0.00059985
5,0.0005,7,1,0.00059985
5,0.0005,7,2,0.00059985
5,0.0005,7,3,0.00059985
5,0.0005,7,4,0.00059985
5,0.0005,7,5,0.000599864
5,0.0005,7,6,0.00059985
5,0.0005,7,7,0.00059985
5,0.0005,7,8,0.00059985
5,0.0005,7,9,0.00059985
5,0.0005,8,0,0.00059985
5,0.0005,8,1,0.00059985
5,0.0005,8,2,0.00059985
5,0.0005,8,3,0.00059985
5,0.0005,8,4,0.00059985
5,0.0005,8,5,0.00059985
5,0.0005,8,6,0.00059985
5,0.0005,8,7,0.00059985
5,0.0005,8,8,0.00059985
5,0.0005,8,9,0.00059985
5,0.0005,9,0,0.00059985
5,0.0005,9,1,0.00059985
5,0.0005,9,2,0.00059985
5,0.0005,9,3,0.00059985
5,0.0005,9,4,0.00059985
5,0.0005,9,5,0.00059985
5,0.0005,9,6,0.00059985
5,0.0005,9,7,0.00059985
5,0.0005,9,8,0.00059985
5,0.0005,9,9,0.00059985
6,0.0006,0,0,0.00069979
6,0.0006,0,1,0.00069979
6,0.0006,0,2,0.00069979
6,0.0006,0,3,0.00069979
6,0.0006,0,4,0.00069979
6,0.0006,0,5,0.00069979
6,0.0006,0,6,0.00069979
6,0.0006,0,7,0.00069979
6,0.0006,0,8,0.00069979
6,0.0006,0,9,0.00069979
6,0.0006,1,0,0.00069979
6,0.0006,1,1,0.00069979
6,0.0006,1,2,0.00069979
6,0.0006,1,3,0.00069979
6,0.0006,1,4,0.00069979
6,0.0006,1,5,0.00069979
6,0.0006,1,6,0.00069979
6,0.0006,1,7,0.00069979
6,0.0006,1,8,0.00069979
6,0.0006,1,9,0.00069979
6,0.0006,2,0,0.00069979
6,0.0006,2,1,0.00069979
6,0.0006,2,2,0.00069979
6,0.0006,2,3,0.00069979
6,0.0006,2,4,0.00069979
6,0.0006,2,5,0.00069979
6,0.0006,2,6,0.00069979
6,0.0006,2,7,0.00069979
6,0.0006,2,8,0.00069979
6,0.0006,2,9,0.00069979
6,0.0006,3,0,0.00069979
6,0.0006,3,1,0.00069979
6,0.0006,3,2,0.00069979
6,0.0006,3,3,0.00069979
6,0.0006,3,4,0.00069979
6,0.0006,3,5,0.000699809
6,0.0006,3,6,0.00069979
6,0.0006,3,7,0.00069979
6,0.0006,3,8,0.00069979
6,0.0006,3,9,0.00069979
6,0.0006,4,0,0.00069979
6,0.0006,4,1,0.00069979
6,0.0006,4,2,0.00069979
6,0.0006,4,3,0.00069979
6,0.0006,4,4,0.000699828
6,0.0006,4,5,0.000763214
6,0.0006,4,6,0.000699828
6,0.0006,4,7,0.00069979
6,0.0006,4,8,0.00069979
6,0.0006,4,9,0.00069979
6,0.0006,5,0,0.00069979
6,0.0006,5,1,0.00069979
6,0.0006,5,2,0.00069979
6,0.0006,5,3,0.000699809
6,0.0006,5,4,0.000763214
6,0.0006,5,5,0.100376
6,0.0006,5,6,0.000763214
6,0.0006,5,7,0.000699809
6,0.0006,5,8,0.00069979
6,0.0006,5,9,0.00069979
6,0.0006,6,0,0.00069979
6,0.0006,6,1,0.00069979
6,0.0006,6,2,0.00069979
6,0.0006,6,3,0.00069979
6,0.0006,6,4,0.000699828
6,0.0006,6,5,0.000763214
6,0.0006,6,6,0.000699828
6,0.0006,6,7,0.00069979
6,0.0006,6,8,0.00069979
6,0.0006,6,9,0.00069979
6,0.0006,7,0,0.00069979
6,0.0006,7,1,0.00069979
6,0.0006,7,2,0.00069979
6,0.0006,7,3,0.00069979
6,0.0006,7,4,0.00069979
6,0.0006,7,5,0.000699809
6,0.0006,7,6,0.00069979
6,0.0006,7,7,0.00069979
6,0.0006,7,8,0.00069979
6,0.0006,7,9,0.00069979
6,0.0006,8,0,0.00069979
6,0.0006,8,1,0.00069979
6,0.0006,8,2,0.00069979
6,0.0006,8,3,0.00069979
6,0.0006,8,4,0.00069979
6,0.0006,8,5,0.00069979
6,0.0006,8,6,0.00069979
6,0.0006,8,7,0.00069979
6,0.0006,8,8,0.00069979
6,0.0006,8,9,0.00069979
6,0.0006,9,0,0.00069979
6,0.0006,9,1,0.00069979
6,0.0006,9,2,0.00069979
6,0.0006,9,3,0.00069979
6,0.0006,9,4,0.00069979
6,0.0006,9,5,0.00069979
6,0.0006,9,6,0.00069979
6,0.0006,9,7,0.00069979
6,0.0006,9,8,0.00069979
6,0.0006,9,9,0.00069979
7,0.0007,0,0,0.00079972
7,0.0007,0,1,0.00079972
7,0.0007,0,2,0.00079972
7,0.0007,0,3,0.00079972
7,0.0007,0,4,0.00079972
7,0.0007,0,5,0.00079972
7,0.0007,0,6,0.00079972
7,0.0007,0,7,0.00079972
7,0.0007,0,8,0.00079972
7,0.0007,0,9,0.00079972
7,0.0007,1,0,0.00079972
7,0.0007,1,1,0.00079972
7,0.0007,1,2,0.00079972
7,0.0007,1,3,0.00079972
7,0.0007,1,4,0.00079972
7,0.0007,1,5,0.00079972
7,0.0007,1,6,0.00079972
7,0.0007,1,7,0.00079972
7,0.0007,1,8,0.00079972
7,0.0007,1,9,0.00079972
7,0.0007,2,0,0.00079972
7,0.0007,2,1,0.00079972
7,0.0007,2,2,0.00079972
7,0.0007,2,3,0.00079972
7,0.0007,2,4,0.00079972
7,0.0007,2,5,0.00079972
7,0.0007,2,6,0.00079972
7,0.0007,2,7,0.00079972
7,0.0007,2,8,0.00079972
7,0.0007,2,9,0.00079972
7,0.0007,3,0,0.00079972
7,0.0007,3,1,0.00079972
7,0.0007,3,2,0.00079972
7,0.0007,3,3,0.00079972
7,0.0007,3,4,0.00079972
7,0.0007,3,5,0.000799745
7,0.0007,3,6,0.00079972
7,0.0007,3,7,0.00079972
7,0.0007,3,8,0.00079972
7,0.0007,3,9,0.00079972
7,0.0007,4,0,0.00079972
7,0.0007,4,1,0.00079972
7,0.0007,4,2,0.00079972
7,0.0007,4,3,0.00079972
7,0.0007,4,4,0.000799771
7,0.0007,4,5,0.000872165
7,0.0007,4,6,0.000799771
7,0.0007,4,7,0.00079972
7,0.0007,4,8,0.00079972
7,0.0007,4,9,0.00079972
7,0.0007,5,0,0.00079972
7,0.0007,5,1,0.00079972
7,0.0007,5,2,0.00079972
7,0.0007,5,3,0.000799745
7,0.0007,5,4,0.000872165
7,0.0007,5,5,0.10043
7,0.0007,5,6,0.000872165
7,0.0007,5,7,0.000799745
7,0.0007,5,8,0.00079972
7,0.0007,5,9,0.00079972
7,0.0007,6,0,0.00079972
7,0.0007,6,1,0.00079972
7,0.0007,6,2,0.00079972
7,0.0007,6,3,0.00079972
7,0.0007,6,4,0.000799771
7,0.0007,6,5,0.000872165
7,0.0007,6,6,0.000799771
7,0.0007,6,7,0.00079972
7,0.0007,6,8,0.00079972
7,0.0007,6,9,0.00079972
7,0.0007,7,0,0.00079972
7,0.0007,7,1,0.00079972
7,0.0007,7,2,0.00079972
7,0.0007,7,3,0.00079972
7,0.0007,7,4,0.00079972
7,0.0007,7,5,0.000799745
7,0.0007,7,6,0.00079972
7,0.0007,7,7,0.00079972
7,0.0007,7,8,0.00079972
7,0.0007,7,9,0.00079972
7,0.0007,8,0,0.00079972
7,0.0007,8,1,0.00079972
7,0.0007,8,2,0.00079972
7,0.0007,8,3,0.00079972
7,0.0007,8,4,0.00079972
7,0.0007,8,5,0.00079972
7,0.0007,8,6,0.00079972
7,0.0007,8,7,0.00079972
7,0.0007,8,8,0.00079972
7,0.0007,8,9,0.00079972
7,0.0007,9,0,0.00079972
7,0.0007,9,1,0.00079972
7,0.0007,9,2,0.00079972
7,0.0007,9,3,0.00079972
7,0.0007,9,4,0.00079972
7,0.0007,9,5,0.00079972
7,0.0007,9,6,0.00079972
7,0.0007,9,7,0.00079972
7,0.0007,9,8,0.00079972
7,0.0007,9,9,0.00079972
8,0.0008,0,0,0.00089964
8,0.0008,0,1,0.00089964
8,0.0008,0,2,0.00089964
8,0.0008,0,3,0.00089964
8,0.0008,0,4,0.00089964
8,0.0008,0,5,0.00089964
8,0.0008,0,6,0.00089964
8,0.0008,0,7,0.00089964
8,0.0008,0,8,0.00089964
8,0.0008,0,9,0.00089964
8,0.0008,1,0,0.00089964
8,0.0008,1,1,0.00089964
8,0.0008,1,2,0.00089964
8,0.0008,1,3,0.00089964
8,0.0008,1,4,0.00089964
8,0.0008,1,5,0.00089964
8,0.0008,1,6,0.00089964
8,0.0008,1,7,0.00089964
8,0.0008,1,8,0.00089964
8,0.0008,1,9,0.00089964
8,0.0008,2,0,0.00089964
8,0.0008,2,1,0.00089964
8,0.0008,2,2,0.00089964
8,0.0008,2,3,0.00089964
8,0.0008,2,4,0.00089964
8,0.0008,2,5,0.00089964
8,0.0008,2,6,0.00089964
8,0.0008,2,7,0.00089964
8,0.0008,2,8,0.00089964
8,0.0008,2,9,0.00089964
8,0.0008,3,0,0.00089964
8,0.0008,3,1,0.00089964
8,0.0008,3,2,0.00089964
8,0.0008,3,3,0.00089964
8,0.0008,3,4,0.00089964
8,0.0008,3,5,0.000899673
8,0.0008,3,6,0.00089964
8,0.0008,3,7,0.00089964
8,0.0008,3,8,0.00089964
8,0.0008,3,9,0.00089964
8,0.0008,4,0,0.00089964
8,0.0008,4,1,0.00089964
8,0.0008,4,2,0.00089964
8,0.0008,4,3,0.00089964
8,0.0008,4,4,0.000899705
8,0.0008,4,5,0.000981095
8,0.0008,4,6,0.000899705
8,0.0008,4,7,0.00089964
8,0.0008,4,8,0.00089964
8,0.0008,4,9,0.00089964
8,0.0008,5,0,0.00089964
8,0.0008,5,1,0.00089964
8,0.0008,5,2,0.00089964
8,0.0008,5,3,0.000899673
8,0.0008,5,4,0.000981095
8,0.0008,5,5,0.100483
8,0.0008,5,6,0.000981095
8,0.0008,5,7,0.000899673
8,0.0008,5,8,0.00089964
8,0.0008,5,9,0.00089964
8,0.0008,6,0,0.00089964
8,0.0008,6,1,0.00089964
8,0.0008,6,2,0.00089964
8,0.0008,6,3,0.00089964
8,0.0008,6,4,0.000899705
8,0.0008,6,5,0.000981095
8,0.0008,6,6,0.000899705
8,0.0008,6,7,0.00089964
8,0.0008,6,8,0.00089964
8,0.0008,6,9,0.00089964
8,0.0008,7,0,0.00089964
8,0.0008,7,1,0.00089964
8,0.0008,7,2,0.00089964
8,0.0008,7,3,0.00089964
8,0.0008,7,4,0.00089964
8,0.0008,7,5,0.000899673
8,0.0008,7,6,0.00089964
8,0.0008,7,7,0.00089964
8,0.0008,7,8,0.00089964
8,0.0008,7,9,0.00089964
8,0.0008,8,0,0.00089964
8,0.0008,8,1,0.00089964
8,0.0008,8,2,0.00089964
8,0.0008,8,3,0.00089964
8,0.0008,8,4,0.00089964
8,0.0008,8,5,0.00089964
8,0.0008,8,6,0.00089964
8,0.0008,8,7,0.00089964
8,0.0008,8,8,0.00089964
8,0.0008,8,9,0.00089964
8,0.0008,9,0,0.00089964
8,0.0008,9,1,0.00089964
8,0.0008,9,2,0.00089964
8,0.0008,9,3,0.00089964
8,0.0008,9,4,0.00089964
8,0.0008,9,5,0.00089964
8,0.0008,9,6,0.00089964
8,0.0008,9,7,0.00089964
8,0.0008,9,8,0.00089964
8,0.0008,9,9,0.00089964
9,0.0009,0,0,0.00099955
9,0.0009,0,1,0.00099955
9,0.0009,0,2,0.00099955
9,0.0009,0,3,0.00099955
9,0.0009,0,4,0.00099955
9,0.0009,0,5,0.00099955
9,0.0009,0,6,0.00099955
9,0.0009,0,7,0.00099955
9,0.0009,0,8,0.00099955
9,0.0009,0,9,0.00099955
9,0.0009,1,0,0.00099955
9,0.0009,1,1,0.00099955
9,0.0009,1,2,0.00099955
9,0.0009,1,3,0.00099955
9,0.0009,1,4,0.00099955
9,0.0009,1,5,0.00099955
9,0.0009,1,6,0.00099955
9,0.0009,1,7,0.00099955
9,0.0009,1,8,0.00099955
9,0.0009,1,9,0.00099955
9,0.0009,2,0,0.00099955
9,0.0009,2,1,0.00099955
9,0.0009,2,2,0.00099955
9,0.0009,2,3,0.00099955
9,0.0009,2,4,0.00099955
9,0.0009,2,5,0.00099955
9,0.0009,2,6,0.00099955
9,0.0009,2,7,0.00099955
9,0.0009,2,8,0.00099955
9,0.0009,2,9,0.00099955
9,0.0009,3,0,0.00099955
9,0.0009,3,1,0.00099955
9,0.0009,3,2,0.00099955
9,0.0009,3,3,0.00099955
9,0.0009,3,4,0.00099955
9,0.0009,3,5,0.000999591
9,0.0009,3,6,0.00099955
9,0.0009,3,7,0.00099955
9,0.0009,3,8,0.00099955
9,0.0009,3,9,0.00099955
9,0.0009,4,0,0.00099955
9,0.0009,4,1,0.00099955
9,0.0009,4,2,0.00099955
9,0.0009,4,3,0.00099955
9,0.0009,4,4,0.000999631
9,0.0009,4,5,0.00109001
9,0.0009,4,6,0.000999631
9,0.0009,4,7,0.00099955
9,0.0009,4,8,0.00099955
9,0.0009,4,9,0.00099955
9,0.0009,5,0,0.00099955
9,0.0009,5,1,0.00099955
9,0.0009,5,2,0.00099955
9,0.0009,5,3,0.000999591
9,0.0009,5,4,0.00109001
9,0.0009,5,5,0.100537
9,0.0009,5,6,0.00109001
9,0.0009,5,7,0.000999591
9,0.0009,5,8,0.00099955
9,0.0009,5,9,0.00099955
9,0.0009,6,0,0.00099955
9,0.0009,6,1,0.00099955
9,0.0009,6,2,0.00099955
9,0.0009,6,3,0.00099955
9,0.0009,6,4,0.000999631
9,0.0009,6,5,0.00109001
9,0.0009,6,6,0.000999631
9,0.0009,6,7,0.00099955
9,0.0009,6,8,0.00099955
9,0.0009,6,9,0.00099955
9,0.0009,7,0,0.00099955
9,0.0009,7,1,0.00099955
9,0.0009,7,2,0.00099955
9,0.0009,7,3,0.00099955
9,0.0009,7,4,0.00099955
9,0.0009,7,5,0.000999591
9,0.0009,7,6,0.00099955
9,0.0009,7,7,0.00099955
9,0.0009,7,8,0.00099955
9,0.0009,7,9,0.00099955
9,0.0009,8,0,0.00099955
9,0.0009,8,1,0.00099955
9,0.0009,8,2,0.00099955
9,0.0009,8,3,0.00099955
9,0.0009,8,4,0.00099955
9,0.0009,8,5,0.00099955
9,0.0009,8,6,0.00099955
9,0.0009,8,7,0.00099955
9,0.0009,8,8,0.00099955
9,0.0009,8,9,0.00099955
9,0.0009,9,0,0.00099955
9,0.0009,9,1,0.00099955
9,0.0009,9,2,0.00099955
9,0.0009,9,3,0.00099955
9,0.0009,9,4,0.00099955
9,0.0009,9,5,0.00099955
9,0.0009,9,6,0.00099955
9,0.0009,9,7,0.00099955
9,0.0009,9,8,0.00099955
9,0.0009,9,9,0.00099955
